EESchema Schematic File Version 4
LIBS:ThirdBoard-cache
EELAYER 26 0
EELAYER END
$Descr A4 11693 8268
encoding utf-8
Sheet 2 2
Title ""
Date ""
Rev ""
Comp ""
Comment1 ""
Comment2 ""
Comment3 ""
Comment4 ""
$EndDescr
$Comp
L Connector:RJ45_LED_Shielded J?
U 1 1 5C01B4C8
P 4200 3050
F 0 "J?" H 4200 3717 50  0000 C CNN
F 1 "RJ45_LED_Shielded" H 4200 3626 50  0000 C CNN
F 2 "" V 4200 3075 50  0001 C CNN
F 3 "~" V 4200 3075 50  0001 C CNN
	1    4200 3050
	1    0    0    -1  
$EndComp
$Comp
L Connector:RJ45_LED_Shielded J?
U 1 1 5C01B4CF
P 4200 4400
F 0 "J?" H 4200 5067 50  0000 C CNN
F 1 "RJ45_LED_Shielded" H 4200 4976 50  0000 C CNN
F 2 "" V 4200 4425 50  0001 C CNN
F 3 "~" V 4200 4425 50  0001 C CNN
	1    4200 4400
	1    0    0    -1  
$EndComp
$Comp
L Device:LED LED_12V?
U 1 1 5C01B4D6
P 5950 2650
F 0 "LED_12V?" V 5988 2533 50  0000 R CNN
F 1 "LED" V 5897 2533 50  0000 R CNN
F 2 "" H 5950 2650 50  0001 C CNN
F 3 "~" H 5950 2650 50  0001 C CNN
	1    5950 2650
	0    -1   -1   0   
$EndComp
$Comp
L Device:LED LED_5V?
U 1 1 5C01B4DD
P 6500 2650
F 0 "LED_5V?" V 6538 2533 50  0000 R CNN
F 1 "LED" V 6447 2533 50  0000 R CNN
F 2 "" H 6500 2650 50  0001 C CNN
F 3 "~" H 6500 2650 50  0001 C CNN
	1    6500 2650
	0    -1   -1   0   
$EndComp
$Comp
L Device:LED LED_POWERED?
U 1 1 5C01B4E4
P 7000 2650
F 0 "LED_POWERED?" V 7038 2533 50  0000 R CNN
F 1 "LED" V 6947 2533 50  0000 R CNN
F 2 "" H 7000 2650 50  0001 C CNN
F 3 "~" H 7000 2650 50  0001 C CNN
	1    7000 2650
	0    -1   -1   0   
$EndComp
$Comp
L Device:LED LED_FAULT?
U 1 1 5C01B4EB
P 7700 2650
F 0 "LED_FAULT?" V 7738 2533 50  0000 R CNN
F 1 "LED" V 7647 2533 50  0000 R CNN
F 2 "" H 7700 2650 50  0001 C CNN
F 3 "~" H 7700 2650 50  0001 C CNN
	1    7700 2650
	0    -1   -1   0   
$EndComp
Wire Wire Line
	7700 2800 7000 2800
Wire Wire Line
	5950 2800 5950 3050
Connection ~ 5950 2800
Connection ~ 6500 2800
Wire Wire Line
	6500 2800 5950 2800
Connection ~ 7000 2800
Wire Wire Line
	7000 2800 6500 2800
Wire Wire Line
	7000 2500 7000 2450
Wire Wire Line
	7700 2500 7700 2450
Wire Wire Line
	4600 3150 5100 3150
Wire Wire Line
	5100 3150 5100 4500
Wire Wire Line
	5100 4500 4600 4500
Wire Wire Line
	4600 4200 5050 4200
Wire Wire Line
	5050 4200 5050 2850
Wire Wire Line
	5050 2850 4600 2850
Wire Wire Line
	4600 4700 4850 4700
Wire Wire Line
	4850 4700 4850 3350
Wire Wire Line
	4850 3350 4600 3350
Wire Wire Line
	4600 3250 4800 3250
Wire Wire Line
	4800 3250 4800 4600
Wire Wire Line
	4800 4600 4600 4600
Wire Wire Line
	4600 2750 4600 2700
$Comp
L Switch:SW_SPDT_MSM SW?
U 1 1 5C01B509
P 6350 4700
F 0 "SW?" V 6304 4848 50  0000 L CNN
F 1 "SW_SPDT_MSM" V 6395 4848 50  0000 L CNN
F 2 "" H 6350 4700 50  0001 C CNN
F 3 "" H 6350 4700 50  0001 C CNN
	1    6350 4700
	1    0    0    -1  
$EndComp
$Comp
L power:+12V #PWR?
U 1 1 5C01B510
P 7400 5150
F 0 "#PWR?" H 7400 5000 50  0001 C CNN
F 1 "+12V" H 7415 5323 50  0000 C CNN
F 2 "" H 7400 5150 50  0001 C CNN
F 3 "" H 7400 5150 50  0001 C CNN
	1    7400 5150
	-1   0    0    1   
$EndComp
$Comp
L power:+5V #PWR?
U 1 1 5C01B516
P 8300 5150
F 0 "#PWR?" H 8300 5000 50  0001 C CNN
F 1 "+5V" H 8315 5323 50  0000 C CNN
F 2 "" H 8300 5150 50  0001 C CNN
F 3 "" H 8300 5150 50  0001 C CNN
	1    8300 5150
	-1   0    0    1   
$EndComp
$Comp
L Transistor_FET:IRLML6402 Q?
U 1 1 5C01B51D
P 8200 4800
F 0 "Q?" H 8405 4846 50  0000 L CNN
F 1 "IRLML6402" H 8405 4755 50  0000 L CNN
F 2 "Package_TO_SOT_SMD:SOT-23" H 8400 4725 50  0001 L CIN
F 3 "https://www.infineon.com/dgdl/irlml6402pbf.pdf?fileId=5546d462533600a401535668d5c2263c" H 8200 4800 50  0001 L CNN
	1    8200 4800
	1    0    0    -1  
$EndComp
$Comp
L Transistor_FET:IRLML6402 Q?
U 1 1 5C01B524
P 7300 4800
F 0 "Q?" H 7505 4846 50  0000 L CNN
F 1 "IRLML6402" H 7505 4755 50  0000 L CNN
F 2 "Package_TO_SOT_SMD:SOT-23" H 7500 4725 50  0001 L CIN
F 3 "https://www.infineon.com/dgdl/irlml6402pbf.pdf?fileId=5546d462533600a401535668d5c2263c" H 7300 4800 50  0001 L CNN
	1    7300 4800
	1    0    0    -1  
$EndComp
Wire Wire Line
	7400 5150 7400 5000
Wire Wire Line
	8300 5150 8300 5000
Wire Wire Line
	6550 4800 6900 4800
Wire Wire Line
	6550 4600 6650 4600
Wire Wire Line
	7000 4600 7000 4450
Wire Wire Line
	7000 4450 8000 4450
Wire Wire Line
	8000 4450 8000 4800
$Comp
L Transistor_FET:IRLML6402 Q?
U 1 1 5C01B532
P 7600 4000
F 0 "Q?" H 7805 4046 50  0000 L CNN
F 1 "IRLML6402" H 7805 3955 50  0000 L CNN
F 2 "Package_TO_SOT_SMD:SOT-23" H 7800 3925 50  0001 L CIN
F 3 "https://www.infineon.com/dgdl/irlml6402pbf.pdf?fileId=5546d462533600a401535668d5c2263c" H 7600 4000 50  0001 L CNN
	1    7600 4000
	1    0    0    -1  
$EndComp
Wire Wire Line
	7400 4600 7400 4350
Wire Wire Line
	7400 4350 7700 4350
Wire Wire Line
	7700 4350 7700 4200
Wire Wire Line
	8300 4600 8300 4350
Wire Wire Line
	8300 4350 7700 4350
Connection ~ 7700 4350
$Comp
L power:+5V #PWR?
U 1 1 5C01B53F
P 5950 4200
F 0 "#PWR?" H 5950 4050 50  0001 C CNN
F 1 "+5V" H 5965 4373 50  0000 C CNN
F 2 "" H 5950 4200 50  0001 C CNN
F 3 "" H 5950 4200 50  0001 C CNN
	1    5950 4200
	1    0    0    -1  
$EndComp
Wire Wire Line
	5950 4700 6150 4700
Wire Notes Line
	8900 5650 8900 3600
Wire Notes Line
	8900 3600 5600 3600
Wire Notes Line
	5600 3600 5600 5650
Wire Notes Line
	5600 5650 8900 5650
Text Notes 5650 3700 0    50   ~ 0
Power selection\n
Wire Notes Line
	5600 3300 8300 3300
Wire Notes Line
	8300 1550 5600 1550
Text Notes 5650 1850 0    50   ~ 0
Indicator lights\n
Wire Wire Line
	7700 3800 7700 3500
Wire Wire Line
	7700 3500 7400 3500
$Comp
L Device:R R?
U 1 1 5C01B550
P 5950 2250
F 0 "R?" H 6020 2296 50  0000 L CNN
F 1 "R" H 6020 2205 50  0000 L CNN
F 2 "" V 5880 2250 50  0001 C CNN
F 3 "~" H 5950 2250 50  0001 C CNN
	1    5950 2250
	1    0    0    -1  
$EndComp
$Comp
L Device:R R?
U 1 1 5C01B557
P 6500 2250
F 0 "R?" H 6570 2296 50  0000 L CNN
F 1 "R" H 6570 2205 50  0000 L CNN
F 2 "" V 6430 2250 50  0001 C CNN
F 3 "~" H 6500 2250 50  0001 C CNN
	1    6500 2250
	1    0    0    -1  
$EndComp
Wire Wire Line
	5950 2400 5950 2500
Wire Wire Line
	6500 2400 6500 2500
Wire Wire Line
	5950 2100 5700 2100
Wire Wire Line
	5700 2100 5700 5100
Wire Wire Line
	5700 5100 6900 5100
Wire Wire Line
	6900 5100 6900 4800
Connection ~ 6900 4800
Wire Wire Line
	6900 4800 7000 4800
Wire Wire Line
	6500 2100 6300 2100
Wire Wire Line
	6300 2100 6300 4350
Wire Wire Line
	6300 4350 6650 4350
Wire Wire Line
	6650 4350 6650 4600
Connection ~ 6650 4600
Wire Wire Line
	6650 4600 7000 4600
Wire Wire Line
	4600 2700 4800 2700
Wire Wire Line
	4800 2700 4800 2500
Wire Wire Line
	4800 2500 5000 2500
Wire Wire Line
	5000 2500 5000 2600
Connection ~ 4600 2700
Wire Wire Line
	4600 2700 4600 2650
$Comp
L Device:R R?
U 1 1 5C01B572
P 7000 2300
F 0 "R?" H 7070 2346 50  0000 L CNN
F 1 "R" H 7070 2255 50  0000 L CNN
F 2 "" V 6930 2300 50  0001 C CNN
F 3 "~" H 7000 2300 50  0001 C CNN
	1    7000 2300
	1    0    0    -1  
$EndComp
$Comp
L Device:R R?
U 1 1 5C01B579
P 7700 2300
F 0 "R?" H 7770 2346 50  0000 L CNN
F 1 "R" H 7770 2255 50  0000 L CNN
F 2 "" V 7630 2300 50  0001 C CNN
F 3 "~" H 7700 2300 50  0001 C CNN
	1    7700 2300
	1    0    0    -1  
$EndComp
Wire Notes Line
	5600 1550 5600 3300
Wire Notes Line
	8300 1550 8300 3300
Wire Wire Line
	3800 2650 3600 2650
Wire Wire Line
	3600 2650 3600 3250
Wire Wire Line
	3800 3250 3600 3250
Connection ~ 3600 3250
Wire Wire Line
	3600 3250 3600 3550
Wire Wire Line
	4200 3550 3600 3550
Connection ~ 3600 3550
Wire Wire Line
	3600 3550 3600 4000
Wire Wire Line
	3800 4000 3600 4000
Connection ~ 3600 4000
Wire Wire Line
	3600 4000 3600 4600
Wire Wire Line
	3800 4600 3600 4600
Connection ~ 3600 4600
Wire Wire Line
	3600 4600 3600 4900
Wire Wire Line
	3600 4900 4200 4900
Connection ~ 3600 4900
Wire Wire Line
	3600 4900 3600 5100
$Comp
L current_sensing:ACS711KLCTR U?
U 1 1 5C01B597
P 5050 1800
F 0 "U?" H 5150 1925 50  0000 C CNN
F 1 "ACS711KLCTR" H 5150 1834 50  0000 C CNN
F 2 "" H 5050 1800 50  0001 C CNN
F 3 "" H 5050 1800 50  0001 C CNN
	1    5050 1800
	1    0    0    -1  
$EndComp
Wire Wire Line
	4600 2950 4600 3000
Wire Wire Line
	4800 2100 4800 2150
Wire Wire Line
	4600 3000 4700 3000
Wire Wire Line
	4700 3000 4700 2150
Wire Wire Line
	4700 2150 4800 2150
Connection ~ 4600 3000
Wire Wire Line
	4600 3000 4600 3050
Connection ~ 4800 2150
Wire Wire Line
	4800 2150 4800 2200
Wire Wire Line
	4800 2000 4800 1950
Wire Wire Line
	4800 1950 4750 1950
Wire Wire Line
	4750 1950 4750 2400
Wire Wire Line
	4750 2400 5350 2400
Connection ~ 4800 1950
Wire Wire Line
	4800 1950 4800 1900
$Comp
L power:+5V #PWR?
U 1 1 5C01B5AD
P 5500 1800
F 0 "#PWR?" H 5500 1650 50  0001 C CNN
F 1 "+5V" H 5515 1973 50  0000 C CNN
F 2 "" H 5500 1800 50  0001 C CNN
F 3 "" H 5500 1800 50  0001 C CNN
	1    5500 1800
	1    0    0    -1  
$EndComp
$Comp
L power:GND #PWR?
U 1 1 5C01B5B3
P 5500 2300
F 0 "#PWR?" H 5500 2050 50  0001 C CNN
F 1 "GND" H 5505 2127 50  0000 C CNN
F 2 "" H 5500 2300 50  0001 C CNN
F 3 "" H 5500 2300 50  0001 C CNN
	1    5500 2300
	1    0    0    -1  
$EndComp
Wire Wire Line
	5400 1900 5500 1900
Wire Wire Line
	5500 1900 5500 1800
Wire Wire Line
	5400 2200 5500 2200
Wire Wire Line
	5500 2200 5500 2300
Wire Wire Line
	5400 1550 5450 1550
Wire Wire Line
	5450 1550 5450 2000
Wire Wire Line
	5450 2000 5400 2000
$Comp
L Device:R R?
U 1 1 5C01B5C1
P 7200 4000
F 0 "R?" V 6993 4000 50  0000 C CNN
F 1 "R" V 7084 4000 50  0000 C CNN
F 2 "" V 7130 4000 50  0001 C CNN
F 3 "~" H 7200 4000 50  0001 C CNN
	1    7200 4000
	0    1    1    0   
$EndComp
Wire Wire Line
	7350 4000 7400 4000
Wire Wire Line
	7000 4000 7050 4000
Wire Wire Line
	7400 3500 7400 2150
Wire Wire Line
	7400 2150 7000 2150
Connection ~ 7400 3500
Wire Wire Line
	7400 3500 5350 3500
Wire Wire Line
	7700 2150 7700 2100
$Comp
L Device:R R?
U 1 1 5C01B5CF
P 2900 2750
F 0 "R?" V 2693 2750 50  0000 C CNN
F 1 "R" V 2784 2750 50  0000 C CNN
F 2 "" V 2830 2750 50  0001 C CNN
F 3 "~" H 2900 2750 50  0001 C CNN
	1    2900 2750
	0    1    1    0   
$EndComp
$Comp
L Device:R R?
U 1 1 5C01B5D6
P 2850 3350
F 0 "R?" V 2643 3350 50  0000 C CNN
F 1 "R" V 2734 3350 50  0000 C CNN
F 2 "" V 2780 3350 50  0001 C CNN
F 3 "~" H 2850 3350 50  0001 C CNN
	1    2850 3350
	0    1    1    0   
$EndComp
$Comp
L Device:R R?
U 1 1 5C01B5DD
P 2900 4100
F 0 "R?" V 2693 4100 50  0000 C CNN
F 1 "R" V 2784 4100 50  0000 C CNN
F 2 "" V 2830 4100 50  0001 C CNN
F 3 "~" H 2900 4100 50  0001 C CNN
	1    2900 4100
	0    1    1    0   
$EndComp
$Comp
L Device:R R?
U 1 1 5C01B5E4
P 2900 4700
F 0 "R?" V 2693 4700 50  0000 C CNN
F 1 "R" V 2784 4700 50  0000 C CNN
F 2 "" V 2830 4700 50  0001 C CNN
F 3 "~" H 2900 4700 50  0001 C CNN
	1    2900 4700
	0    1    1    0   
$EndComp
Wire Wire Line
	3050 2750 3800 2750
Wire Wire Line
	3000 3350 3800 3350
Wire Wire Line
	3050 4100 3800 4100
Wire Wire Line
	3050 4700 3800 4700
Wire Wire Line
	2600 4700 2750 4700
Wire Wire Line
	2600 4100 2750 4100
Wire Wire Line
	2600 3350 2700 3350
Wire Wire Line
	2600 2750 2750 2750
$Comp
L Device:R R?
U 1 1 5C01B5F3
P 7000 4950
F 0 "R?" H 7070 4996 50  0000 L CNN
F 1 "R" H 7070 4905 50  0000 L CNN
F 2 "" V 6930 4950 50  0001 C CNN
F 3 "~" H 7000 4950 50  0001 C CNN
	1    7000 4950
	1    0    0    -1  
$EndComp
Connection ~ 7000 4800
Wire Wire Line
	7000 4800 7100 4800
$Comp
L Device:R R?
U 1 1 5C01B5FC
P 8000 4950
F 0 "R?" H 8070 4996 50  0000 L CNN
F 1 "R" H 8070 4905 50  0000 L CNN
F 2 "" V 7930 4950 50  0001 C CNN
F 3 "~" H 8000 4950 50  0001 C CNN
	1    8000 4950
	1    0    0    -1  
$EndComp
Connection ~ 8000 4800
$Comp
L power:GND #PWR?
U 1 1 5C01B604
P 7000 5350
F 0 "#PWR?" H 7000 5100 50  0001 C CNN
F 1 "GND" H 7005 5177 50  0000 C CNN
F 2 "" H 7000 5350 50  0001 C CNN
F 3 "" H 7000 5350 50  0001 C CNN
	1    7000 5350
	1    0    0    -1  
$EndComp
$Comp
L power:GND #PWR?
U 1 1 5C01B60A
P 8000 5350
F 0 "#PWR?" H 8000 5100 50  0001 C CNN
F 1 "GND" H 8005 5177 50  0000 C CNN
F 2 "" H 8000 5350 50  0001 C CNN
F 3 "" H 8000 5350 50  0001 C CNN
	1    8000 5350
	1    0    0    -1  
$EndComp
Wire Wire Line
	7000 5350 7000 5100
Wire Wire Line
	8000 5350 8000 5100
$Comp
L power:GND #PWR?
U 1 1 5C01B612
P 5950 3050
F 0 "#PWR?" H 5950 2800 50  0001 C CNN
F 1 "GND" H 5955 2877 50  0000 C CNN
F 2 "" H 5950 3050 50  0001 C CNN
F 3 "" H 5950 3050 50  0001 C CNN
	1    5950 3050
	1    0    0    -1  
$EndComp
$Comp
L power:GND #PWR?
U 1 1 5C01B618
P 5000 2600
F 0 "#PWR?" H 5000 2350 50  0001 C CNN
F 1 "GND" H 5005 2427 50  0000 C CNN
F 2 "" H 5000 2600 50  0001 C CNN
F 3 "" H 5000 2600 50  0001 C CNN
	1    5000 2600
	1    0    0    -1  
$EndComp
$Comp
L power:GND #PWR?
U 1 1 5C01B61E
P 3600 5100
F 0 "#PWR?" H 3600 4850 50  0001 C CNN
F 1 "GND" H 3605 4927 50  0000 C CNN
F 2 "" H 3600 5100 50  0001 C CNN
F 3 "" H 3600 5100 50  0001 C CNN
	1    3600 5100
	1    0    0    -1  
$EndComp
Wire Wire Line
	5950 4200 5950 4700
$Comp
L Device:R FUSE?
U 1 1 5C01B625
P 5350 2950
F 0 "FUSE?" H 5420 2996 50  0000 L CNN
F 1 "R" H 5420 2905 50  0000 L CNN
F 2 "" V 5280 2950 50  0001 C CNN
F 3 "~" H 5350 2950 50  0001 C CNN
	1    5350 2950
	1    0    0    -1  
$EndComp
Wire Wire Line
	5350 2400 5350 2800
Wire Wire Line
	5350 3100 5350 3500
Text HLabel 2600 2750 0    50   Input ~ 0
RJ_LED_1
Text HLabel 2600 3350 0    50   Input ~ 0
RJ_LED_2
Text HLabel 2600 4100 0    50   Input ~ 0
RJ_LED_3
Text HLabel 2600 4700 0    50   Input ~ 0
RJ_LED_4
Text HLabel 7700 2100 1    50   Input ~ 0
FAULT
Text HLabel 7000 4000 0    50   Input ~ 0
POE_ENA
Text HLabel 5400 1550 0    50   Input ~ 0
CURRENT_SENSE
$EndSCHEMATC
