EESchema Schematic File Version 4
LIBS:ThirdBoard-cache
EELAYER 26 0
EELAYER END
$Descr A4 11693 8268
encoding utf-8
Sheet 1 2
Title ""
Date ""
Rev ""
Comp ""
Comment1 ""
Comment2 ""
Comment3 ""
Comment4 ""
$EndDescr
$Sheet
S 2300 1600 1350 500 
U 5C011B2D
F0 "Sheet5C011B2C" 50
F1 "single_poe_injector.sch" 50
F2 "POE_ENA" I L 2300 1700 50 
F3 "FAULT" I L 2300 1900 50 
F4 "RJ_LED_1" I R 3650 1700 50 
F5 "RJ_LED_2" I R 3650 1800 50 
F6 "RJ_LED_3" I R 3650 1900 50 
F7 "RJ_LED_4" I R 3650 2000 50 
F8 "CURRENT_SENSE" O L 2300 1800 50 
$EndSheet
$Sheet
S 2300 2300 1350 500 
U 5C0520C4
F0 "sheet5C0520BB" 50
F1 "single_poe_injector.sch" 50
F2 "POE_ENA" I L 2300 2400 50 
F3 "FAULT" I L 2300 2600 50 
F4 "RJ_LED_1" I R 3650 2400 50 
F5 "RJ_LED_2" I R 3650 2500 50 
F6 "RJ_LED_3" I R 3650 2600 50 
F7 "RJ_LED_4" I R 3650 2700 50 
F8 "CURRENT_SENSE" O L 2300 2500 50 
$EndSheet
$Sheet
S 2300 3000 1350 500 
U 5C0520DF
F0 "sheet5C0520D5" 50
F1 "single_poe_injector.sch" 50
F2 "POE_ENA" I L 2300 3100 50 
F3 "FAULT" I L 2300 3300 50 
F4 "RJ_LED_1" I R 3650 3100 50 
F5 "RJ_LED_2" I R 3650 3200 50 
F6 "RJ_LED_3" I R 3650 3300 50 
F7 "RJ_LED_4" I R 3650 3400 50 
F8 "CURRENT_SENSE" O L 2300 3200 50 
$EndSheet
$Sheet
S 2300 3700 1350 500 
U 5C0520E8
F0 "sheet5C0520D6" 50
F1 "single_poe_injector.sch" 50
F2 "POE_ENA" I L 2300 3800 50 
F3 "FAULT" I L 2300 4000 50 
F4 "RJ_LED_1" I R 3650 3800 50 
F5 "RJ_LED_2" I R 3650 3900 50 
F6 "RJ_LED_3" I R 3650 4000 50 
F7 "RJ_LED_4" I R 3650 4100 50 
F8 "CURRENT_SENSE" O L 2300 3900 50 
$EndSheet
$Sheet
S 2300 4400 1350 500 
U 5C052115
F0 "sheet5C052109" 50
F1 "single_poe_injector.sch" 50
F2 "POE_ENA" I L 2300 4500 50 
F3 "FAULT" I L 2300 4700 50 
F4 "RJ_LED_1" I R 3650 4500 50 
F5 "RJ_LED_2" I R 3650 4600 50 
F6 "RJ_LED_3" I R 3650 4700 50 
F7 "RJ_LED_4" I R 3650 4800 50 
F8 "CURRENT_SENSE" O L 2300 4600 50 
$EndSheet
$Sheet
S 2300 5100 1350 500 
U 5C05211E
F0 "sheet5C05210A" 50
F1 "single_poe_injector.sch" 50
F2 "POE_ENA" I L 2300 5200 50 
F3 "FAULT" I L 2300 5400 50 
F4 "RJ_LED_1" I R 3650 5200 50 
F5 "RJ_LED_2" I R 3650 5300 50 
F6 "RJ_LED_3" I R 3650 5400 50 
F7 "RJ_LED_4" I R 3650 5500 50 
F8 "CURRENT_SENSE" O L 2300 5300 50 
$EndSheet
$Sheet
S 2300 5800 1350 500 
U 5C052127
F0 "sheet5C05210B" 50
F1 "single_poe_injector.sch" 50
F2 "POE_ENA" I L 2300 5900 50 
F3 "FAULT" I L 2300 6100 50 
F4 "RJ_LED_1" I R 3650 5900 50 
F5 "RJ_LED_2" I R 3650 6000 50 
F6 "RJ_LED_3" I R 3650 6100 50 
F7 "RJ_LED_4" I R 3650 6200 50 
F8 "CURRENT_SENSE" O L 2300 6000 50 
$EndSheet
$Sheet
S 2300 6500 1350 500 
U 5C052130
F0 "sheet5C05210C" 50
F1 "single_poe_injector.sch" 50
F2 "POE_ENA" I L 2300 6600 50 
F3 "FAULT" I L 2300 6800 50 
F4 "RJ_LED_1" I R 3650 6600 50 
F5 "RJ_LED_2" I R 3650 6700 50 
F6 "RJ_LED_3" I R 3650 6800 50 
F7 "RJ_LED_4" I R 3650 6900 50 
F8 "CURRENT_SENSE" O L 2300 6700 50 
$EndSheet
$EndSCHEMATC
