EESchema Schematic File Version 2
LIBS:4xxx
LIBS:4xxx_IEEE
LIBS:74xGxx
LIBS:74xx
LIBS:74xx_IEEE
LIBS:Amplifier_Audio
LIBS:Amplifier_Buffer
LIBS:Amplifier_Current
LIBS:Amplifier_Difference
LIBS:Amplifier_Instrumentation
LIBS:Amplifier_Operational
LIBS:Amplifier_Video
LIBS:Analog
LIBS:Analog_ADC
LIBS:Analog_DAC
LIBS:Analog_Switch
LIBS:Audio
LIBS:Battery_Management
LIBS:Comparator
LIBS:Connector
LIBS:Connector_Generic
LIBS:Connector_Generic_MountingPin
LIBS:Connector_Generic_Shielded
LIBS:Converter_ACDC
LIBS:Converter_DCDC
LIBS:CPLD_Altera
LIBS:CPLD_Xilinx
LIBS:CPU
LIBS:CPU_NXP_6800
LIBS:CPU_NXP_68000
LIBS:CPU_PowerPC
LIBS:Device
LIBS:Diode
LIBS:Diode_Bridge
LIBS:Diode_Laser
LIBS:Display_Character
LIBS:Display_Graphic
LIBS:Driver_Display
LIBS:Driver_FET
LIBS:Driver_LED
LIBS:Driver_Motor
LIBS:Driver_Relay
LIBS:DSP_AnalogDevices
LIBS:DSP_Freescale
LIBS:DSP_Microchip_DSPIC33
LIBS:DSP_Motorola
LIBS:DSP_Texas
LIBS:Fiber_Optic
LIBS:Filter
LIBS:FPGA_Lattice
LIBS:FPGA_Microsemi
LIBS:FPGA_Xilinx
LIBS:FPGA_Xilinx_Artix7
LIBS:FPGA_Xilinx_Kintex7
LIBS:FPGA_Xilinx_Spartan6
LIBS:FPGA_Xilinx_Virtex5
LIBS:FPGA_Xilinx_Virtex6
LIBS:FPGA_Xilinx_Virtex7
LIBS:GPU
LIBS:Graphic
LIBS:Interface
LIBS:Interface_CAN_LIN
LIBS:Interface_CurrentLoop
LIBS:Interface_Ethernet
LIBS:Interface_Expansion
LIBS:Interface_HID
LIBS:Interface_LineDriver
LIBS:Interface_Optical
LIBS:Interface_Telecom
LIBS:Interface_UART
LIBS:Interface_USB
LIBS:Isolator
LIBS:Isolator_Analog
LIBS:Jumper
LIBS:LED
LIBS:Logic_LevelTranslator
LIBS:Logic_Programmable
LIBS:MCU_AnalogDevices
LIBS:MCU_Cypress
LIBS:MCU_Espressif
LIBS:MCU_Intel
LIBS:MCU_Microchip_8051
LIBS:MCU_Microchip_ATmega
LIBS:MCU_Microchip_ATtiny
LIBS:MCU_Microchip_AVR
LIBS:MCU_Microchip_PIC10
LIBS:MCU_Microchip_PIC12
LIBS:MCU_Microchip_PIC16
LIBS:MCU_Microchip_PIC18
LIBS:MCU_Microchip_PIC24
LIBS:MCU_Microchip_PIC32
LIBS:MCU_Microchip_SAME
LIBS:MCU_Microchip_SAML
LIBS:MCU_Module
LIBS:MCU_Nordic
LIBS:MCU_NXP_ColdFire
LIBS:MCU_NXP_HC11
LIBS:MCU_NXP_HC12
LIBS:MCU_NXP_HCS12
LIBS:MCU_NXP_Kinetis
LIBS:MCU_NXP_LPC
LIBS:MCU_NXP_MAC7100
LIBS:MCU_NXP_MCore
LIBS:MCU_NXP_S08
LIBS:MCU_Parallax
LIBS:MCU_SiFive
LIBS:MCU_SiliconLabs
LIBS:MCU_ST_STM8
LIBS:MCU_ST_STM32F0
LIBS:MCU_ST_STM32F1
LIBS:MCU_ST_STM32F2
LIBS:MCU_ST_STM32F3
LIBS:MCU_ST_STM32F4
LIBS:MCU_ST_STM32F7
LIBS:MCU_ST_STM32H7
LIBS:MCU_ST_STM32L0
LIBS:MCU_ST_STM32L1
LIBS:MCU_ST_STM32L4
LIBS:MCU_ST_STM32L4+
LIBS:MCU_Texas
LIBS:MCU_Texas_MSP430
LIBS:Mechanical
LIBS:Memory_Controller
LIBS:Memory_EEPROM
LIBS:Memory_EPROM
LIBS:Memory_Flash
LIBS:Memory_NVRAM
LIBS:Memory_RAM
LIBS:Memory_ROM
LIBS:Memory_UniqueID
LIBS:Motor
LIBS:Oscillator
LIBS:Potentiometer_Digital
LIBS:power
LIBS:Power_Management
LIBS:Power_Protection
LIBS:Power_Supervisor
LIBS:pspice
LIBS:Reference_Current
LIBS:Reference_Voltage
LIBS:Regulator_Controller
LIBS:Regulator_Current
LIBS:Regulator_Linear
LIBS:Regulator_SwitchedCapacitor
LIBS:Regulator_Switching
LIBS:Relay
LIBS:Relay_SolidState
LIBS:RF
LIBS:RF_AM_FM
LIBS:RF_Amplifier
LIBS:RF_Bluetooth
LIBS:RF_GPS
LIBS:RF_Mixer
LIBS:RF_Module
LIBS:RF_RFID
LIBS:RF_Switch
LIBS:RF_WiFi
LIBS:RF_ZigBee
LIBS:Security
LIBS:Sensor
LIBS:Sensor_Audio
LIBS:Sensor_Current
LIBS:Sensor_Gas
LIBS:Sensor_Humidity
LIBS:Sensor_Magnetic
LIBS:Sensor_Motion
LIBS:Sensor_Optical
LIBS:Sensor_Pressure
LIBS:Sensor_Proximity
LIBS:Sensor_Temperature
LIBS:Sensor_Touch
LIBS:Sensor_Voltage
LIBS:Switch
LIBS:Timer
LIBS:Timer_PLL
LIBS:Timer_RTC
LIBS:Transformer
LIBS:Transistor_Array
LIBS:Transistor_BJT
LIBS:Transistor_FET
LIBS:Transistor_IGBT
LIBS:Triac_Thyristor
LIBS:Valve
LIBS:Video
LIBS:Boards
LIBS:finder_relay
LIBS:FirstBoard
LIBS:uln2803
LIBS:SecondBoard-cache
EELAYER 25 0
EELAYER END
$Descr A4 11693 8268
encoding utf-8
Sheet 4 19
Title ""
Date ""
Rev ""
Comp ""
Comment1 ""
Comment2 ""
Comment3 ""
Comment4 ""
$EndDescr
$Sheet
S 5000 2150 1300 500 
U 5C2D11EF
F0 "sheet5C2D11E5" 60
F1 "file5C2CC244.sch" 60
F2 "VOUT" O R 6300 2550 60 
F3 "VIN" O L 5000 2200 60 
F4 "GNDIN" O L 5000 2300 60 
F5 "DISABLE" O L 5000 2450 60 
F6 "ANALOG_I_SENSE" O L 5000 2550 60 
$EndSheet
$Comp
L Connector_Generic:Conn_01x02 J?
U 1 1 5C2D11F5
P 7350 2450
AR Path="/5C2D6E16/5C2D11F5" Ref="J?"  Part="1" 
AR Path="/5C2DEF7C/5C2D11F5" Ref="J?"  Part="1" 
F 0 "J?" H 7350 2550 50  0000 C CNN
F 1 "OUTPUT" H 7350 2250 50  0000 C CNN
F 2 "" H 7350 2450 50  0001 C CNN
F 3 "" H 7350 2450 50  0001 C CNN
	1    7350 2450
	1    0    0    -1  
$EndComp
$Comp
L Connector_Generic:Conn_01x02 J?
U 1 1 5C2D11FC
P 6800 2200
AR Path="/5C2D6E16/5C2D11FC" Ref="J?"  Part="1" 
AR Path="/5C2DEF7C/5C2D11FC" Ref="J?"  Part="1" 
F 0 "J?" H 6800 2300 50  0000 C CNN
F 1 "BYPASS" H 6800 2000 50  0000 C CNN
F 2 "" H 6800 2200 50  0001 C CNN
F 3 "" H 6800 2200 50  0001 C CNN
	1    6800 2200
	1    0    0    -1  
$EndComp
$Sheet
S 5000 3150 1300 500 
U 5C2D1210
F0 "sheet5C2D11E6" 60
F1 "file5C2CC244.sch" 60
F2 "VOUT" O R 6300 3550 60 
F3 "VIN" O L 5000 3200 60 
F4 "GNDIN" O L 5000 3300 60 
F5 "DISABLE" O L 5000 3450 60 
F6 "ANALOG_I_SENSE" O L 5000 3550 60 
$EndSheet
$Comp
L Connector_Generic:Conn_01x02 J?
U 1 1 5C2D1216
P 7350 3450
AR Path="/5C2D6E16/5C2D1216" Ref="J?"  Part="1" 
AR Path="/5C2DEF7C/5C2D1216" Ref="J?"  Part="1" 
F 0 "J?" H 7350 3550 50  0000 C CNN
F 1 "OUTPUT" H 7350 3250 50  0000 C CNN
F 2 "" H 7350 3450 50  0001 C CNN
F 3 "" H 7350 3450 50  0001 C CNN
	1    7350 3450
	1    0    0    -1  
$EndComp
$Comp
L Connector_Generic:Conn_01x02 J?
U 1 1 5C2D121D
P 6800 3200
AR Path="/5C2D6E16/5C2D121D" Ref="J?"  Part="1" 
AR Path="/5C2DEF7C/5C2D121D" Ref="J?"  Part="1" 
F 0 "J?" H 6800 3300 50  0000 C CNN
F 1 "BYPASS" H 6800 3000 50  0000 C CNN
F 2 "" H 6800 3200 50  0001 C CNN
F 3 "" H 6800 3200 50  0001 C CNN
	1    6800 3200
	1    0    0    -1  
$EndComp
$Comp
L Analog_ADC:MCP3204 U?
U 1 1 5C2D1230
P 2100 3900
AR Path="/5C2D6E16/5C2D1230" Ref="U?"  Part="1" 
AR Path="/5C2DEF7C/5C2D1230" Ref="U?"  Part="1" 
F 0 "U?" H 1900 4325 50  0000 R CNN
F 1 "MCP3204" H 1900 4250 50  0000 R CNN
F 2 "" H 3000 3600 50  0001 C CNN
F 3 "" H 3000 3600 50  0001 C CNN
	1    2100 3900
	-1   0    0    1   
$EndComp
$Sheet
S 5000 4100 1300 500 
U 5C2D1238
F0 "sheet5C2D11E7" 60
F1 "file5C2CC244.sch" 60
F2 "VOUT" O R 6300 4500 60 
F3 "VIN" O L 5000 4150 60 
F4 "GNDIN" O L 5000 4250 60 
F5 "DISABLE" O L 5000 4400 60 
F6 "ANALOG_I_SENSE" O L 5000 4500 60 
$EndSheet
$Comp
L Connector_Generic:Conn_01x02 J?
U 1 1 5C2D123E
P 7350 4400
AR Path="/5C2D6E16/5C2D123E" Ref="J?"  Part="1" 
AR Path="/5C2DEF7C/5C2D123E" Ref="J?"  Part="1" 
F 0 "J?" H 7350 4500 50  0000 C CNN
F 1 "OUTPUT" H 7350 4200 50  0000 C CNN
F 2 "" H 7350 4400 50  0001 C CNN
F 3 "" H 7350 4400 50  0001 C CNN
	1    7350 4400
	1    0    0    -1  
$EndComp
$Comp
L Connector_Generic:Conn_01x02 J?
U 1 1 5C2D1245
P 6800 4150
AR Path="/5C2D6E16/5C2D1245" Ref="J?"  Part="1" 
AR Path="/5C2DEF7C/5C2D1245" Ref="J?"  Part="1" 
F 0 "J?" H 6800 4250 50  0000 C CNN
F 1 "BYPASS" H 6800 3950 50  0000 C CNN
F 2 "" H 6800 4150 50  0001 C CNN
F 3 "" H 6800 4150 50  0001 C CNN
	1    6800 4150
	1    0    0    -1  
$EndComp
$Sheet
S 5000 5100 1300 500 
U 5C2D1259
F0 "sheet5C2D11E8" 60
F1 "file5C2CC244.sch" 60
F2 "VOUT" O R 6300 5500 60 
F3 "VIN" O L 5000 5150 60 
F4 "GNDIN" O L 5000 5250 60 
F5 "DISABLE" O L 5000 5400 60 
F6 "ANALOG_I_SENSE" O L 5000 5500 60 
$EndSheet
$Comp
L Connector_Generic:Conn_01x02 J?
U 1 1 5C2D125F
P 7350 5400
AR Path="/5C2D6E16/5C2D125F" Ref="J?"  Part="1" 
AR Path="/5C2DEF7C/5C2D125F" Ref="J?"  Part="1" 
F 0 "J?" H 7350 5500 50  0000 C CNN
F 1 "OUTPUT" H 7350 5200 50  0000 C CNN
F 2 "" H 7350 5400 50  0001 C CNN
F 3 "" H 7350 5400 50  0001 C CNN
	1    7350 5400
	1    0    0    -1  
$EndComp
$Comp
L Connector_Generic:Conn_01x02 J?
U 1 1 5C2D1266
P 6800 5150
AR Path="/5C2D6E16/5C2D1266" Ref="J?"  Part="1" 
AR Path="/5C2DEF7C/5C2D1266" Ref="J?"  Part="1" 
F 0 "J?" H 6800 5250 50  0000 C CNN
F 1 "BYPASS" H 6800 4950 50  0000 C CNN
F 2 "" H 6800 5150 50  0001 C CNN
F 3 "" H 6800 5150 50  0001 C CNN
	1    6800 5150
	1    0    0    -1  
$EndComp
Wire Wire Line
	7150 2550 6550 2550
Wire Wire Line
	6600 2300 6550 2300
Wire Wire Line
	6550 2300 6550 2550
Wire Wire Line
	6600 2200 6550 2200
Wire Wire Line
	6550 2200 6550 2050
Wire Wire Line
	7150 3550 6550 3550
Wire Wire Line
	6600 3300 6550 3300
Wire Wire Line
	6550 3300 6550 3550
Wire Wire Line
	6600 3200 6550 3200
Wire Wire Line
	6550 3200 6550 3050
Wire Wire Line
	7150 4500 6550 4500
Wire Wire Line
	6600 4250 6550 4250
Wire Wire Line
	6550 4250 6550 4500
Wire Wire Line
	6600 4150 6550 4150
Wire Wire Line
	6550 4150 6550 4000
Wire Wire Line
	7150 5500 6550 5500
Wire Wire Line
	6600 5250 6550 5250
Wire Wire Line
	6550 5250 6550 5500
Wire Wire Line
	6600 5150 6550 5150
Wire Wire Line
	6550 5150 6550 5000
Text HLabel 1100 3700 0    60   Input ~ 0
CS
Text HLabel 1100 3800 0    60   Input ~ 0
Din
Text HLabel 1100 3900 0    60   Input ~ 0
Dout
Text HLabel 1100 4000 0    60   Input ~ 0
Clk
Wire Wire Line
	2200 3200 2200 3400
Wire Wire Line
	2100 3400 2100 3200
Wire Wire Line
	1100 4000 1500 4000
Wire Wire Line
	1500 3900 1100 3900
Wire Wire Line
	1100 3800 1500 3800
Wire Wire Line
	1500 3700 1100 3700
Wire Wire Line
	2200 4400 2200 4300
$Comp
L Device:C C?
U 1 1 5C2E9739
P 2800 4600
AR Path="/5C2D6E16/5C2E9739" Ref="C?"  Part="1" 
AR Path="/5C2DEF7C/5C2E9739" Ref="C?"  Part="1" 
F 0 "C?" H 2825 4700 50  0000 L CNN
F 1 "0.1uF" H 2825 4500 50  0000 L CNN
F 2 "" H 2838 4450 50  0001 C CNN
F 3 "" H 2800 4600 50  0001 C CNN
	1    2800 4600
	1    0    0    -1  
$EndComp
$Comp
L power:GND #PWR?
U 1 1 5C2EB70D
P 2100 3200
AR Path="/5C2D6E16/5C2EB70D" Ref="#PWR?"  Part="1" 
AR Path="/5C2DEF7C/5C2EB70D" Ref="#PWR?"  Part="1" 
F 0 "#PWR?" H 2100 2950 50  0001 C CNN
F 1 "GND" H 2100 3050 50  0000 C CNN
F 2 "" H 2100 3200 50  0001 C CNN
F 3 "" H 2100 3200 50  0001 C CNN
	1    2100 3200
	-1   0    0    1   
$EndComp
$Comp
L SecondBoard-rescue:+3.3V- #PWR?
U 1 1 5C2EB9B7
P 2800 4350
AR Path="/5C2EB9B7" Ref="#PWR?"  Part="1" 
AR Path="/5C2DEF7C/5C2EB9B7" Ref="#PWR?"  Part="1" 
F 0 "#PWR?" H 2800 4200 50  0001 C CNN
F 1 "+3.3V" H 2800 4490 50  0000 C CNN
F 2 "" H 2800 4350 50  0001 C CNN
F 3 "" H 2800 4350 50  0001 C CNN
	1    2800 4350
	1    0    0    -1  
$EndComp
Text HLabel 4900 2450 0    60   Input ~ 0
DIS1
Text HLabel 4900 3450 0    60   Input ~ 0
DIS2
Text HLabel 4900 4400 0    60   Input ~ 0
DIS3
Text HLabel 4900 5400 0    60   Input ~ 0
DIS4
Text HLabel 7050 5800 3    60   Input ~ 0
GNDIN
Wire Wire Line
	7050 2450 7150 2450
Wire Wire Line
	7050 2450 7050 3450
Wire Wire Line
	7150 5400 7050 5400
Wire Wire Line
	7150 4400 7050 4400
Wire Wire Line
	7150 3450 7050 3450
Wire Wire Line
	4900 2450 5000 2450
Wire Wire Line
	4900 3450 5000 3450
Wire Wire Line
	4900 4400 5000 4400
Wire Wire Line
	4900 5400 5000 5400
Wire Wire Line
	4450 5150 4850 5150
Wire Wire Line
	4850 5150 4850 5000
Wire Wire Line
	4850 5000 6550 5000
Wire Wire Line
	6550 4000 4850 4000
Wire Wire Line
	4850 4000 4850 4150
Wire Wire Line
	4450 4150 4850 4150
Wire Wire Line
	4450 2150 4450 2200
Wire Wire Line
	4450 3200 4850 3200
Wire Wire Line
	4850 3200 4850 3050
Wire Wire Line
	4850 3050 6550 3050
Wire Wire Line
	4450 2200 4850 2200
Wire Wire Line
	6550 2050 4850 2050
Wire Wire Line
	4850 2050 4850 2200
Wire Wire Line
	2100 3200 2200 3200
$Comp
L power:GND #PWR?
U 1 1 5C2F0ADC
P 2800 4850
AR Path="/5C2D6E16/5C2F0ADC" Ref="#PWR?"  Part="1" 
AR Path="/5C2DEF7C/5C2F0ADC" Ref="#PWR?"  Part="1" 
F 0 "#PWR?" H 2800 4600 50  0001 C CNN
F 1 "GND" H 2800 4700 50  0000 C CNN
F 2 "" H 2800 4850 50  0001 C CNN
F 3 "" H 2800 4850 50  0001 C CNN
	1    2800 4850
	1    0    0    -1  
$EndComp
Wire Wire Line
	2800 4350 2800 4400
Wire Wire Line
	2800 4850 2800 4750
Wire Wire Line
	2100 4400 2100 4300
Wire Wire Line
	2100 4400 2200 4400
Text HLabel 4450 2150 1    60   Input ~ 0
VIN
Text HLabel 4550 5800 3    60   Input ~ 0
GNDIN
Wire Wire Line
	5000 5250 4550 5250
Wire Wire Line
	4550 2300 4550 3300
Wire Wire Line
	5000 4250 4550 4250
Wire Wire Line
	5000 2300 4550 2300
Wire Wire Line
	5000 3300 4550 3300
$Comp
L SecondBoard-rescue:R- R?
U 1 1 5C2F2B3A
P 4150 2550
AR Path="/5C2D6E16/5C2F2B3A" Ref="R?"  Part="1" 
AR Path="/5C2DEF7C/5C2F2B3A" Ref="R?"  Part="1" 
F 0 "R?" V 4230 2550 50  0000 C CNN
F 1 "10K" V 4150 2550 50  0000 C CNN
F 2 "" V 4080 2550 50  0001 C CNN
F 3 "" H 4150 2550 50  0001 C CNN
	1    4150 2550
	0    -1   -1   0   
$EndComp
$Comp
L SecondBoard-rescue:R- R?
U 1 1 5C2F2BEB
P 3750 2550
AR Path="/5C2D6E16/5C2F2BEB" Ref="R?"  Part="1" 
AR Path="/5C2DEF7C/5C2F2BEB" Ref="R?"  Part="1" 
F 0 "R?" V 3830 2550 50  0000 C CNN
F 1 "10K" V 3750 2550 50  0000 C CNN
F 2 "" V 3680 2550 50  0001 C CNN
F 3 "" H 3750 2550 50  0001 C CNN
	1    3750 2550
	0    -1   -1   0   
$EndComp
$Comp
L power:GND #PWR?
U 1 1 5C2F2E2E
P 3550 2600
AR Path="/5C2D6E16/5C2F2E2E" Ref="#PWR?"  Part="1" 
AR Path="/5C2DEF7C/5C2F2E2E" Ref="#PWR?"  Part="1" 
F 0 "#PWR?" H 3550 2350 50  0001 C CNN
F 1 "GND" H 3550 2450 50  0000 C CNN
F 2 "" H 3550 2600 50  0001 C CNN
F 3 "" H 3550 2600 50  0001 C CNN
	1    3550 2600
	1    0    0    -1  
$EndComp
Wire Wire Line
	3550 2600 3550 2550
Wire Wire Line
	3550 2550 3600 2550
Wire Wire Line
	4300 2550 5000 2550
Wire Wire Line
	3900 2550 3950 2550
$Comp
L SecondBoard-rescue:R- R?
U 1 1 5C2F3316
P 4150 5500
AR Path="/5C2D6E16/5C2F3316" Ref="R?"  Part="1" 
AR Path="/5C2DEF7C/5C2F3316" Ref="R?"  Part="1" 
F 0 "R?" V 4230 5500 50  0000 C CNN
F 1 "10K" V 4150 5500 50  0000 C CNN
F 2 "" V 4080 5500 50  0001 C CNN
F 3 "" H 4150 5500 50  0001 C CNN
	1    4150 5500
	0    -1   -1   0   
$EndComp
$Comp
L SecondBoard-rescue:R- R?
U 1 1 5C2F331C
P 3750 5500
AR Path="/5C2D6E16/5C2F331C" Ref="R?"  Part="1" 
AR Path="/5C2DEF7C/5C2F331C" Ref="R?"  Part="1" 
F 0 "R?" V 3830 5500 50  0000 C CNN
F 1 "10K" V 3750 5500 50  0000 C CNN
F 2 "" V 3680 5500 50  0001 C CNN
F 3 "" H 3750 5500 50  0001 C CNN
	1    3750 5500
	0    -1   -1   0   
$EndComp
$Comp
L power:GND #PWR?
U 1 1 5C2F3322
P 3550 5550
AR Path="/5C2D6E16/5C2F3322" Ref="#PWR?"  Part="1" 
AR Path="/5C2DEF7C/5C2F3322" Ref="#PWR?"  Part="1" 
F 0 "#PWR?" H 3550 5300 50  0001 C CNN
F 1 "GND" H 3550 5400 50  0000 C CNN
F 2 "" H 3550 5550 50  0001 C CNN
F 3 "" H 3550 5550 50  0001 C CNN
	1    3550 5550
	1    0    0    -1  
$EndComp
Wire Wire Line
	3550 5550 3550 5500
Wire Wire Line
	3550 5500 3600 5500
Wire Wire Line
	4300 5500 5000 5500
Wire Wire Line
	3900 5500 3950 5500
$Comp
L SecondBoard-rescue:R- R?
U 1 1 5C2F48A7
P 4150 3550
AR Path="/5C2D6E16/5C2F48A7" Ref="R?"  Part="1" 
AR Path="/5C2DEF7C/5C2F48A7" Ref="R?"  Part="1" 
F 0 "R?" V 4230 3550 50  0000 C CNN
F 1 "10K" V 4150 3550 50  0000 C CNN
F 2 "" V 4080 3550 50  0001 C CNN
F 3 "" H 4150 3550 50  0001 C CNN
	1    4150 3550
	0    -1   -1   0   
$EndComp
$Comp
L SecondBoard-rescue:R- R?
U 1 1 5C2F48AD
P 3750 3550
AR Path="/5C2D6E16/5C2F48AD" Ref="R?"  Part="1" 
AR Path="/5C2DEF7C/5C2F48AD" Ref="R?"  Part="1" 
F 0 "R?" V 3830 3550 50  0000 C CNN
F 1 "10K" V 3750 3550 50  0000 C CNN
F 2 "" V 3680 3550 50  0001 C CNN
F 3 "" H 3750 3550 50  0001 C CNN
	1    3750 3550
	0    -1   -1   0   
$EndComp
$Comp
L power:GND #PWR?
U 1 1 5C2F48B3
P 3550 3600
AR Path="/5C2D6E16/5C2F48B3" Ref="#PWR?"  Part="1" 
AR Path="/5C2DEF7C/5C2F48B3" Ref="#PWR?"  Part="1" 
F 0 "#PWR?" H 3550 3350 50  0001 C CNN
F 1 "GND" H 3550 3450 50  0000 C CNN
F 2 "" H 3550 3600 50  0001 C CNN
F 3 "" H 3550 3600 50  0001 C CNN
	1    3550 3600
	1    0    0    -1  
$EndComp
Wire Wire Line
	3550 3600 3550 3550
Wire Wire Line
	3550 3550 3600 3550
Wire Wire Line
	4300 3550 5000 3550
Wire Wire Line
	3900 3550 3950 3550
$Comp
L SecondBoard-rescue:R- R?
U 1 1 5C2F4A23
P 4150 4500
AR Path="/5C2D6E16/5C2F4A23" Ref="R?"  Part="1" 
AR Path="/5C2DEF7C/5C2F4A23" Ref="R?"  Part="1" 
F 0 "R?" V 4230 4500 50  0000 C CNN
F 1 "10K" V 4150 4500 50  0000 C CNN
F 2 "" V 4080 4500 50  0001 C CNN
F 3 "" H 4150 4500 50  0001 C CNN
	1    4150 4500
	0    -1   -1   0   
$EndComp
$Comp
L SecondBoard-rescue:R- R?
U 1 1 5C2F4A29
P 3750 4500
AR Path="/5C2D6E16/5C2F4A29" Ref="R?"  Part="1" 
AR Path="/5C2DEF7C/5C2F4A29" Ref="R?"  Part="1" 
F 0 "R?" V 3830 4500 50  0000 C CNN
F 1 "10K" V 3750 4500 50  0000 C CNN
F 2 "" V 3680 4500 50  0001 C CNN
F 3 "" H 3750 4500 50  0001 C CNN
	1    3750 4500
	0    -1   -1   0   
$EndComp
$Comp
L power:GND #PWR?
U 1 1 5C2F4A2F
P 3550 4550
AR Path="/5C2D6E16/5C2F4A2F" Ref="#PWR?"  Part="1" 
AR Path="/5C2DEF7C/5C2F4A2F" Ref="#PWR?"  Part="1" 
F 0 "#PWR?" H 3550 4300 50  0001 C CNN
F 1 "GND" H 3550 4400 50  0000 C CNN
F 2 "" H 3550 4550 50  0001 C CNN
F 3 "" H 3550 4550 50  0001 C CNN
	1    3550 4550
	1    0    0    -1  
$EndComp
Wire Wire Line
	3550 4550 3550 4500
Wire Wire Line
	3550 4500 3600 4500
Wire Wire Line
	4300 4500 5000 4500
Wire Wire Line
	3900 4500 3950 4500
Wire Wire Line
	3950 2550 3950 3400
Wire Wire Line
	2700 3700 3250 3700
Wire Wire Line
	2700 3800 3950 3800
Wire Wire Line
	3950 3800 3950 3550
Wire Wire Line
	2700 3900 3950 3900
Wire Wire Line
	3950 3900 3950 4500
Wire Wire Line
	2700 4000 3250 4000
Wire Wire Line
	3250 4000 3250 5100
Wire Wire Line
	3250 5100 3950 5100
Wire Wire Line
	3950 5100 3950 5500
Wire Wire Line
	3250 3700 3250 3400
Wire Wire Line
	3250 3400 3950 3400
$Comp
L power:+5V #PWR?
U 1 1 5C2F5A12
P 2800 4350
AR Path="/5C2D6E16/5C2F5A12" Ref="#PWR?"  Part="1" 
AR Path="/5C2DEF7C/5C2F5A12" Ref="#PWR?"  Part="1" 
F 0 "#PWR?" H 2800 4200 50  0001 C CNN
F 1 "+5V" H 2800 4490 50  0000 C CNN
F 2 "" H 2800 4350 50  0001 C CNN
F 3 "" H 2800 4350 50  0001 C CNN
	1    2800 4350
	1    0    0    -1  
$EndComp
$EndSCHEMATC
