EESchema Schematic File Version 2
LIBS:4xxx
LIBS:4xxx_IEEE
LIBS:74xGxx
LIBS:74xx
LIBS:74xx_IEEE
LIBS:Amplifier_Audio
LIBS:Amplifier_Buffer
LIBS:Amplifier_Current
LIBS:Amplifier_Difference
LIBS:Amplifier_Instrumentation
LIBS:Amplifier_Operational
LIBS:Amplifier_Video
LIBS:Analog
LIBS:Analog_ADC
LIBS:Analog_DAC
LIBS:Analog_Switch
LIBS:Audio
LIBS:Battery_Management
LIBS:Comparator
LIBS:Connector
LIBS:Connector_Generic
LIBS:Connector_Generic_MountingPin
LIBS:Connector_Generic_Shielded
LIBS:Converter_ACDC
LIBS:Converter_DCDC
LIBS:CPLD_Altera
LIBS:CPLD_Xilinx
LIBS:CPU
LIBS:CPU_NXP_6800
LIBS:CPU_NXP_68000
LIBS:CPU_PowerPC
LIBS:Device
LIBS:Diode
LIBS:Diode_Bridge
LIBS:Diode_Laser
LIBS:Display_Character
LIBS:Display_Graphic
LIBS:Driver_Display
LIBS:Driver_FET
LIBS:Driver_LED
LIBS:Driver_Motor
LIBS:Driver_Relay
LIBS:DSP_AnalogDevices
LIBS:DSP_Freescale
LIBS:DSP_Microchip_DSPIC33
LIBS:DSP_Motorola
LIBS:DSP_Texas
LIBS:Fiber_Optic
LIBS:Filter
LIBS:FPGA_Lattice
LIBS:FPGA_Microsemi
LIBS:FPGA_Xilinx
LIBS:FPGA_Xilinx_Artix7
LIBS:FPGA_Xilinx_Kintex7
LIBS:FPGA_Xilinx_Spartan6
LIBS:FPGA_Xilinx_Virtex5
LIBS:FPGA_Xilinx_Virtex6
LIBS:FPGA_Xilinx_Virtex7
LIBS:GPU
LIBS:Graphic
LIBS:Interface
LIBS:Interface_CAN_LIN
LIBS:Interface_CurrentLoop
LIBS:Interface_Ethernet
LIBS:Interface_Expansion
LIBS:Interface_HID
LIBS:Interface_LineDriver
LIBS:Interface_Optical
LIBS:Interface_Telecom
LIBS:Interface_UART
LIBS:Interface_USB
LIBS:Isolator
LIBS:Isolator_Analog
LIBS:Jumper
LIBS:LED
LIBS:Logic_LevelTranslator
LIBS:Logic_Programmable
LIBS:MCU_AnalogDevices
LIBS:MCU_Cypress
LIBS:MCU_Espressif
LIBS:MCU_Intel
LIBS:MCU_Microchip_8051
LIBS:MCU_Microchip_ATmega
LIBS:MCU_Microchip_ATtiny
LIBS:MCU_Microchip_AVR
LIBS:MCU_Microchip_PIC10
LIBS:MCU_Microchip_PIC12
LIBS:MCU_Microchip_PIC16
LIBS:MCU_Microchip_PIC18
LIBS:MCU_Microchip_PIC24
LIBS:MCU_Microchip_PIC32
LIBS:MCU_Microchip_SAME
LIBS:MCU_Microchip_SAML
LIBS:MCU_Module
LIBS:MCU_Nordic
LIBS:MCU_NXP_ColdFire
LIBS:MCU_NXP_HC11
LIBS:MCU_NXP_HC12
LIBS:MCU_NXP_HCS12
LIBS:MCU_NXP_Kinetis
LIBS:MCU_NXP_LPC
LIBS:MCU_NXP_MAC7100
LIBS:MCU_NXP_MCore
LIBS:MCU_NXP_S08
LIBS:MCU_Parallax
LIBS:MCU_SiFive
LIBS:MCU_SiliconLabs
LIBS:MCU_ST_STM8
LIBS:MCU_ST_STM32F0
LIBS:MCU_ST_STM32F1
LIBS:MCU_ST_STM32F2
LIBS:MCU_ST_STM32F3
LIBS:MCU_ST_STM32F4
LIBS:MCU_ST_STM32F7
LIBS:MCU_ST_STM32H7
LIBS:MCU_ST_STM32L0
LIBS:MCU_ST_STM32L1
LIBS:MCU_ST_STM32L4
LIBS:MCU_ST_STM32L4+
LIBS:MCU_Texas
LIBS:MCU_Texas_MSP430
LIBS:Mechanical
LIBS:Memory_Controller
LIBS:Memory_EEPROM
LIBS:Memory_EPROM
LIBS:Memory_Flash
LIBS:Memory_NVRAM
LIBS:Memory_RAM
LIBS:Memory_ROM
LIBS:Memory_UniqueID
LIBS:Motor
LIBS:Oscillator
LIBS:Potentiometer_Digital
LIBS:power
LIBS:Power_Management
LIBS:Power_Protection
LIBS:Power_Supervisor
LIBS:pspice
LIBS:Reference_Current
LIBS:Reference_Voltage
LIBS:Regulator_Controller
LIBS:Regulator_Current
LIBS:Regulator_Linear
LIBS:Regulator_SwitchedCapacitor
LIBS:Regulator_Switching
LIBS:Relay
LIBS:Relay_SolidState
LIBS:RF
LIBS:RF_AM_FM
LIBS:RF_Amplifier
LIBS:RF_Bluetooth
LIBS:RF_GPS
LIBS:RF_Mixer
LIBS:RF_Module
LIBS:RF_RFID
LIBS:RF_Switch
LIBS:RF_WiFi
LIBS:RF_ZigBee
LIBS:Security
LIBS:Sensor
LIBS:Sensor_Audio
LIBS:Sensor_Current
LIBS:Sensor_Gas
LIBS:Sensor_Humidity
LIBS:Sensor_Magnetic
LIBS:Sensor_Motion
LIBS:Sensor_Optical
LIBS:Sensor_Pressure
LIBS:Sensor_Proximity
LIBS:Sensor_Temperature
LIBS:Sensor_Touch
LIBS:Sensor_Voltage
LIBS:Switch
LIBS:Timer
LIBS:Timer_PLL
LIBS:Timer_RTC
LIBS:Transformer
LIBS:Transistor_Array
LIBS:Transistor_BJT
LIBS:Transistor_FET
LIBS:Transistor_IGBT
LIBS:Triac_Thyristor
LIBS:Valve
LIBS:Video
LIBS:Boards
LIBS:finder_relay
LIBS:FirstBoard
LIBS:uln2803
LIBS:SecondBoard-cache
EELAYER 25 0
EELAYER END
$Descr A4 11693 8268
encoding utf-8
Sheet 14 19
Title ""
Date ""
Rev ""
Comp ""
Comment1 ""
Comment2 ""
Comment3 ""
Comment4 ""
$EndDescr
$Comp
L BSS138 Q?
U 1 1 5C2D2C96
P 3350 3700
F 0 "Q?" H 3550 3775 50  0000 L CNN
F 1 "BSS138" H 3550 3700 50  0000 L CNN
F 2 "Package_TO_SOT_SMD:SOT-23" H 3550 3625 50  0001 L CIN
F 3 "" H 3350 3700 50  0001 L CNN
	1    3350 3700
	0    1    1    0   
$EndComp
$Comp
L R R?
U 1 1 5C2D2CCD
P 3150 3400
F 0 "R?" V 3230 3400 50  0000 C CNN
F 1 "10K" V 3150 3400 50  0000 C CNN
F 2 "" V 3080 3400 50  0001 C CNN
F 3 "" H 3150 3400 50  0001 C CNN
	1    3150 3400
	1    0    0    -1  
$EndComp
$Comp
L R R?
U 1 1 5C2D2CFE
P 3550 3400
F 0 "R?" V 3630 3400 50  0000 C CNN
F 1 "10K" V 3550 3400 50  0000 C CNN
F 2 "" V 3480 3400 50  0001 C CNN
F 3 "" H 3550 3400 50  0001 C CNN
	1    3550 3400
	1    0    0    -1  
$EndComp
Wire Wire Line
	3150 3550 3150 3800
Wire Wire Line
	3150 3250 3350 3250
Wire Wire Line
	3350 3250 3350 3500
Wire Wire Line
	3550 3550 3550 3800
Text HLabel 2950 3800 0    60   Input ~ 0
LV
Text HLabel 3750 3800 2    60   Input ~ 0
HV
Wire Wire Line
	3150 3800 2950 3800
Wire Wire Line
	3550 3800 3750 3800
$Comp
L +3.3V #PWR?
U 1 1 5C2D2D4F
P 3150 3150
F 0 "#PWR?" H 3150 3000 50  0001 C CNN
F 1 "+3.3V" H 3150 3290 50  0000 C CNN
F 2 "" H 3150 3150 50  0001 C CNN
F 3 "" H 3150 3150 50  0001 C CNN
	1    3150 3150
	1    0    0    -1  
$EndComp
$Comp
L +5V #PWR?
U 1 1 5C2D2D69
P 3550 3150
F 0 "#PWR?" H 3550 3000 50  0001 C CNN
F 1 "+5V" H 3550 3290 50  0000 C CNN
F 2 "" H 3550 3150 50  0001 C CNN
F 3 "" H 3550 3150 50  0001 C CNN
	1    3550 3150
	1    0    0    -1  
$EndComp
Wire Wire Line
	3150 3250 3150 3150
Wire Wire Line
	3550 3250 3550 3150
Connection ~ 3550 3800
Connection ~ 3150 3800
Connection ~ 3150 3250
$EndSCHEMATC
