EESchema Schematic File Version 4
LIBS:SecondBoard-cache
EELAYER 26 0
EELAYER END
$Descr A4 11693 8268
encoding utf-8
Sheet 3 6
Title ""
Date ""
Rev ""
Comp ""
Comment1 ""
Comment2 ""
Comment3 ""
Comment4 ""
$EndDescr
Text HLabel 2750 3050 0    50   Input ~ 0
24V
Text HLabel 2750 3400 0    50   Input ~ 0
GND
$EndSCHEMATC
