EESchema Schematic File Version 2
LIBS:4xxx
LIBS:4xxx_IEEE
LIBS:74xGxx
LIBS:74xx
LIBS:74xx_IEEE
LIBS:Amplifier_Audio
LIBS:Amplifier_Buffer
LIBS:Amplifier_Current
LIBS:Amplifier_Difference
LIBS:Amplifier_Instrumentation
LIBS:Amplifier_Operational
LIBS:Amplifier_Video
LIBS:Analog
LIBS:Analog_ADC
LIBS:Analog_DAC
LIBS:Analog_Switch
LIBS:Audio
LIBS:Battery_Management
LIBS:Comparator
LIBS:Connector
LIBS:Connector_Generic
LIBS:Connector_Generic_MountingPin
LIBS:Connector_Generic_Shielded
LIBS:Converter_ACDC
LIBS:Converter_DCDC
LIBS:CPLD_Altera
LIBS:CPLD_Xilinx
LIBS:CPU
LIBS:CPU_NXP_6800
LIBS:CPU_NXP_68000
LIBS:CPU_PowerPC
LIBS:Device
LIBS:Diode
LIBS:Diode_Bridge
LIBS:Diode_Laser
LIBS:Display_Character
LIBS:Display_Graphic
LIBS:Driver_Display
LIBS:Driver_FET
LIBS:Driver_LED
LIBS:Driver_Motor
LIBS:Driver_Relay
LIBS:DSP_AnalogDevices
LIBS:DSP_Freescale
LIBS:DSP_Microchip_DSPIC33
LIBS:DSP_Motorola
LIBS:DSP_Texas
LIBS:Fiber_Optic
LIBS:Filter
LIBS:FPGA_Lattice
LIBS:FPGA_Microsemi
LIBS:FPGA_Xilinx
LIBS:FPGA_Xilinx_Artix7
LIBS:FPGA_Xilinx_Kintex7
LIBS:FPGA_Xilinx_Spartan6
LIBS:FPGA_Xilinx_Virtex5
LIBS:FPGA_Xilinx_Virtex6
LIBS:FPGA_Xilinx_Virtex7
LIBS:GPU
LIBS:Graphic
LIBS:Interface
LIBS:Interface_CAN_LIN
LIBS:Interface_CurrentLoop
LIBS:Interface_Ethernet
LIBS:Interface_Expansion
LIBS:Interface_HID
LIBS:Interface_LineDriver
LIBS:Interface_Optical
LIBS:Interface_Telecom
LIBS:Interface_UART
LIBS:Interface_USB
LIBS:Isolator
LIBS:Isolator_Analog
LIBS:Jumper
LIBS:LED
LIBS:Logic_LevelTranslator
LIBS:Logic_Programmable
LIBS:MCU_AnalogDevices
LIBS:MCU_Cypress
LIBS:MCU_Espressif
LIBS:MCU_Intel
LIBS:MCU_Microchip_8051
LIBS:MCU_Microchip_ATmega
LIBS:MCU_Microchip_ATtiny
LIBS:MCU_Microchip_AVR
LIBS:MCU_Microchip_PIC10
LIBS:MCU_Microchip_PIC12
LIBS:MCU_Microchip_PIC16
LIBS:MCU_Microchip_PIC18
LIBS:MCU_Microchip_PIC24
LIBS:MCU_Microchip_PIC32
LIBS:MCU_Microchip_SAME
LIBS:MCU_Microchip_SAML
LIBS:MCU_Module
LIBS:MCU_Nordic
LIBS:MCU_NXP_ColdFire
LIBS:MCU_NXP_HC11
LIBS:MCU_NXP_HC12
LIBS:MCU_NXP_HCS12
LIBS:MCU_NXP_Kinetis
LIBS:MCU_NXP_LPC
LIBS:MCU_NXP_MAC7100
LIBS:MCU_NXP_MCore
LIBS:MCU_NXP_S08
LIBS:MCU_Parallax
LIBS:MCU_SiFive
LIBS:MCU_SiliconLabs
LIBS:MCU_ST_STM8
LIBS:MCU_ST_STM32F0
LIBS:MCU_ST_STM32F1
LIBS:MCU_ST_STM32F2
LIBS:MCU_ST_STM32F3
LIBS:MCU_ST_STM32F4
LIBS:MCU_ST_STM32F7
LIBS:MCU_ST_STM32H7
LIBS:MCU_ST_STM32L0
LIBS:MCU_ST_STM32L1
LIBS:MCU_ST_STM32L4
LIBS:MCU_ST_STM32L4+
LIBS:MCU_Texas
LIBS:MCU_Texas_MSP430
LIBS:Mechanical
LIBS:Memory_Controller
LIBS:Memory_EEPROM
LIBS:Memory_EPROM
LIBS:Memory_Flash
LIBS:Memory_NVRAM
LIBS:Memory_RAM
LIBS:Memory_ROM
LIBS:Memory_UniqueID
LIBS:Motor
LIBS:Oscillator
LIBS:Potentiometer_Digital
LIBS:power
LIBS:Power_Management
LIBS:Power_Protection
LIBS:Power_Supervisor
LIBS:pspice
LIBS:Reference_Current
LIBS:Reference_Voltage
LIBS:Regulator_Controller
LIBS:Regulator_Current
LIBS:Regulator_Linear
LIBS:Regulator_SwitchedCapacitor
LIBS:Regulator_Switching
LIBS:Relay
LIBS:Relay_SolidState
LIBS:RF
LIBS:RF_AM_FM
LIBS:RF_Amplifier
LIBS:RF_Bluetooth
LIBS:RF_GPS
LIBS:RF_Mixer
LIBS:RF_Module
LIBS:RF_RFID
LIBS:RF_Switch
LIBS:RF_WiFi
LIBS:RF_ZigBee
LIBS:Security
LIBS:Sensor
LIBS:Sensor_Audio
LIBS:Sensor_Current
LIBS:Sensor_Gas
LIBS:Sensor_Humidity
LIBS:Sensor_Magnetic
LIBS:Sensor_Motion
LIBS:Sensor_Optical
LIBS:Sensor_Pressure
LIBS:Sensor_Proximity
LIBS:Sensor_Temperature
LIBS:Sensor_Touch
LIBS:Sensor_Voltage
LIBS:Switch
LIBS:Timer
LIBS:Timer_PLL
LIBS:Timer_RTC
LIBS:Transformer
LIBS:Transistor_Array
LIBS:Transistor_BJT
LIBS:Transistor_FET
LIBS:Transistor_IGBT
LIBS:Triac_Thyristor
LIBS:Valve
LIBS:Video
LIBS:Boards
LIBS:finder_relay
LIBS:FirstBoard
LIBS:uln2803
LIBS:SecondBoard-cache
EELAYER 25 0
EELAYER END
$Descr A4 11693 8268
encoding utf-8
Sheet 1 19
Title ""
Date ""
Rev ""
Comp ""
Comment1 ""
Comment2 ""
Comment3 ""
Comment4 ""
$EndDescr
$Comp
L Connector_Generic:Conn_01x02 J?
U 1 1 5C2CB6F7
P 1900 6050
F 0 "J?" H 1900 6150 50  0000 C CNN
F 1 "Lipo" H 1900 5850 50  0000 C CNN
F 2 "" H 1900 6050 50  0001 C CNN
F 3 "" H 1900 6050 50  0001 C CNN
	1    1900 6050
	1    0    0    -1  
$EndComp
$Comp
L Connector_Generic:Conn_01x02 J?
U 1 1 5C2CB752
P 2450 6050
F 0 "J?" H 2450 6150 50  0000 C CNN
F 1 "Charger" H 2450 5850 50  0000 C CNN
F 2 "" H 2450 6050 50  0001 C CNN
F 3 "" H 2450 6050 50  0001 C CNN
	1    2450 6050
	1    0    0    -1  
$EndComp
$Comp
L Connector_Generic:Conn_01x02 J?
U 1 1 5C2CB785
P 3050 6050
F 0 "J?" H 3050 6150 50  0000 C CNN
F 1 "Killswitch" H 3050 5850 50  0000 C CNN
F 2 "" H 3050 6050 50  0001 C CNN
F 3 "" H 3050 6050 50  0001 C CNN
	1    3050 6050
	1    0    0    -1  
$EndComp
Wire Wire Line
	1700 5900 1700 6050
Wire Wire Line
	1700 5900 2850 5900
Wire Wire Line
	2250 5900 2250 6050
Connection ~ 1700 5950
Wire Wire Line
	2250 6350 2250 6150
Connection ~ 1700 6350
Wire Wire Line
	2850 5900 2850 6050
Connection ~ 2250 5900
Wire Wire Line
	2850 6150 2850 6450
$Comp
L Device:CP C?
U 1 1 5C2DF7C4
P 8900 1450
F 0 "C?" H 8925 1550 50  0000 L CNN
F 1 "CP" H 8925 1350 50  0000 L CNN
F 2 "" H 8938 1300 50  0001 C CNN
F 3 "" H 8900 1450 50  0001 C CNN
	1    8900 1450
	1    0    0    -1  
$EndComp
$Comp
L Device:CP C?
U 1 1 5C2DF938
P 10450 1450
F 0 "C?" H 10475 1550 50  0000 L CNN
F 1 "CP" H 10475 1350 50  0000 L CNN
F 2 "" H 10488 1300 50  0001 C CNN
F 3 "" H 10450 1450 50  0001 C CNN
	1    10450 1450
	1    0    0    -1  
$EndComp
$Comp
L jetport:GND #PWR?
U 1 1 5C2E0053
P 1700 6350
F 0 "#PWR?" H 1700 6100 50  0001 C CNN
F 1 "GND" H 1700 6200 50  0000 C CNN
F 2 "" H 1700 6350 50  0001 C CNN
F 3 "" H 1700 6350 50  0001 C CNN
	1    1700 6350
	0    1    1    0   
$EndComp
Wire Wire Line
	1700 6350 1700 6150
$Comp
L power:+BATT #PWR?
U 1 1 5C2E02BC
P 1700 5950
F 0 "#PWR?" H 1700 5800 50  0001 C CNN
F 1 "+BATT" H 1700 6090 50  0000 C CNN
F 2 "" H 1700 5950 50  0001 C CNN
F 3 "" H 1700 5950 50  0001 C CNN
	1    1700 5950
	0    -1   -1   0   
$EndComp
Connection ~ 2250 6350
$Comp
L Transistor_Array:ULN2802A U?
U 1 1 5C2E4D25
P 9500 3950
F 0 "U?" H 9500 4475 50  0000 C CNN
F 1 "ULN2802A" H 9500 4400 50  0000 C CNN
F 2 "" H 9550 3300 50  0001 L CNN
F 3 "" H 9600 3750 50  0001 C CNN
	1    9500 3950
	0    1    1    0   
$EndComp
$Comp
L Analog_ADC:MCP3208 U?
U 1 1 5C2E58A4
P 7050 2300
F 0 "U?" H 6850 2825 50  0000 R CNN
F 1 "MCP3208" H 6850 2750 50  0000 R CNN
F 2 "" H 7150 2400 50  0001 C CNN
F 3 "" H 7150 2400 50  0001 C CNN
	1    7050 2300
	0    -1   -1   0   
$EndComp
$Sheet
S 6050 4000 1400 850 
U 5C2D44AF
F0 "blackPill" 50
F1 "blackPill.sch" 50
F2 "SS1" O L 6050 4150 50 
F3 "SS2" O L 6050 4300 50 
F4 "SS3" O L 6050 4450 50 
F5 "OUT_DIS1" O R 7450 4100 50 
F6 "OUT_DIS2" O R 7450 4200 50 
F7 "OUT_DIS3" O R 7450 4300 50 
F8 "OUT_DIS4" O R 7450 4400 50 
F9 "OUT_DIS5" O R 7450 4500 50 
F10 "OUT_DIS6" O R 7450 4600 50 
F11 "OUT_DIS7" O R 7450 4700 50 
F12 "OUT_DIS8" O R 7450 4800 50 
$EndSheet
$Sheet
S 8150 1700 900  1350
U 5C2DEF7C
F0 "Sheet5C2D6E15" 60
F1 "file5C2D6E15.sch" 60
F2 "VIN" O T 8800 1700 60 
F3 "CS" I T 8700 1700 60 
F4 "Din" I T 8600 1700 60 
F5 "Dout" I T 8500 1700 60 
F6 "Clk" I T 8400 1700 60 
F7 "DIS1" I B 8850 3050 60 
F8 "DIS2" I B 8650 3050 60 
F9 "DIS3" I B 8450 3050 60 
F10 "DIS4" I B 8250 3050 60 
F11 "GNDIN" I T 8900 1700 60 
$EndSheet
$Sheet
S 9700 1700 900  1350
U 5C2D6E16
F0 "Sheet5C2D6E15" 60
F1 "file5C2D6E15.sch" 60
F2 "VIN" O T 10350 1700 60 
F3 "CS" I T 10250 1700 60 
F4 "Din" I T 10150 1700 60 
F5 "Dout" I T 10050 1700 60 
F6 "Clk" I T 9950 1700 60 
F7 "DIS1" I B 10400 3050 60 
F8 "DIS2" I B 10200 3050 60 
F9 "DIS3" I B 10000 3050 60 
F10 "DIS4" I B 9800 3050 60 
F11 "GNDIN" I T 10450 1700 60 
$EndSheet
Wire Wire Line
	8250 3050 8250 3400
Wire Wire Line
	8250 3400 9000 3400
Wire Wire Line
	9000 3400 9000 3550
Wire Wire Line
	8450 3050 8450 3350
Wire Wire Line
	8450 3350 9100 3350
Wire Wire Line
	9100 3350 9100 3550
Wire Wire Line
	8650 3050 8650 3300
Wire Wire Line
	8650 3300 9200 3300
Wire Wire Line
	9200 3300 9200 3550
Wire Wire Line
	8850 3050 8850 3250
Wire Wire Line
	8850 3250 9300 3250
Wire Wire Line
	9300 3250 9300 3550
Wire Wire Line
	9700 3550 9700 3400
Wire Wire Line
	9700 3400 10400 3400
Wire Wire Line
	10400 3400 10400 3050
Wire Wire Line
	10200 3050 10200 3350
Wire Wire Line
	10200 3350 9600 3350
Wire Wire Line
	9600 3350 9600 3550
Wire Wire Line
	9500 3550 9500 3300
Wire Wire Line
	9500 3300 10000 3300
Wire Wire Line
	10000 3300 10000 3050
Wire Wire Line
	9400 3550 9400 3250
Wire Wire Line
	9400 3250 9800 3250
Wire Wire Line
	9800 3250 9800 3050
Entry Wire Line
	6850 1250 6950 1350
Entry Wire Line
	6950 1250 7050 1350
Entry Wire Line
	7050 1250 7150 1350
Entry Wire Line
	7150 1250 7250 1350
Wire Wire Line
	6950 1700 6950 1350
Wire Wire Line
	7050 1700 7050 1350
Wire Wire Line
	7150 1350 7150 1700
Wire Wire Line
	7250 1700 7250 1350
Wire Wire Line
	8400 1700 8400 1350
Wire Wire Line
	8500 1700 8500 1350
Wire Wire Line
	8600 1700 8600 1350
Wire Wire Line
	8700 1700 8700 1350
Wire Wire Line
	9950 1700 9950 1350
Wire Wire Line
	10050 1700 10050 1350
Wire Wire Line
	10150 1700 10150 1350
Wire Wire Line
	10250 1700 10250 1350
Entry Wire Line
	8300 1250 8400 1350
Entry Wire Line
	8400 1250 8500 1350
Entry Wire Line
	8500 1250 8600 1350
Entry Wire Line
	8600 1250 8700 1350
Entry Wire Line
	9850 1250 9950 1350
Entry Wire Line
	9950 1250 10050 1350
Entry Wire Line
	10050 1250 10150 1350
Entry Wire Line
	10150 1250 10250 1350
Wire Wire Line
	6550 2400 6550 1800
Wire Wire Line
	6550 1800 6300 1800
$Comp
L power:GND #PWR?
U 1 1 5C2FD0D6
P 6300 2250
F 0 "#PWR?" H 6300 2000 50  0001 C CNN
F 1 "GND" H 6300 2100 50  0000 C CNN
F 2 "" H 6300 2250 50  0001 C CNN
F 3 "" H 6300 2250 50  0001 C CNN
	1    6300 2250
	1    0    0    -1  
$EndComp
$Comp
L power:+5V #PWR?
U 1 1 5C2FD11E
P 6300 1750
F 0 "#PWR?" H 6300 1600 50  0001 C CNN
F 1 "+5V" H 6300 1890 50  0000 C CNN
F 2 "" H 6300 1750 50  0001 C CNN
F 3 "" H 6300 1750 50  0001 C CNN
	1    6300 1750
	1    0    0    -1  
$EndComp
$Comp
L Device:C C?
U 1 1 5C2FD385
P 6300 2050
F 0 "C?" H 6325 2150 50  0000 L CNN
F 1 "0.1uF" H 6325 1950 50  0000 L CNN
F 2 "" H 6338 1900 50  0001 C CNN
F 3 "" H 6300 2050 50  0001 C CNN
	1    6300 2050
	1    0    0    -1  
$EndComp
Wire Wire Line
	6300 2250 6300 2200
Wire Wire Line
	6300 1750 6300 1900
Connection ~ 6300 1800
$Comp
L power:GND #PWR?
U 1 1 5C2FD63C
P 7650 2550
F 0 "#PWR?" H 7650 2300 50  0001 C CNN
F 1 "GND" H 7650 2400 50  0000 C CNN
F 2 "" H 7650 2550 50  0001 C CNN
F 3 "" H 7650 2550 50  0001 C CNN
	1    7650 2550
	1    0    0    -1  
$EndComp
Wire Wire Line
	7650 2100 7650 2550
Connection ~ 7650 2400
Wire Wire Line
	8800 1700 8800 1050
Wire Wire Line
	8800 1050 10450 1050
Wire Wire Line
	8900 1050 8900 1300
Wire Wire Line
	8900 1600 8900 1700
Wire Wire Line
	10350 1050 10350 1700
Connection ~ 8900 1050
Wire Wire Line
	10450 1050 10450 1300
Connection ~ 10350 1050
Wire Wire Line
	10450 1600 10450 1700
Wire Wire Line
	1700 6350 2250 6350
$Comp
L Vreg:5VREG U?
U 1 1 5C2D2081
P 2250 7000
F 0 "U?" V 2637 6669 60  0000 C CNN
F 1 "5VREG" V 2531 6669 60  0000 C CNN
F 2 "" H 2250 7000 60  0001 C CNN
F 3 "" H 2250 7000 60  0001 C CNN
	1    2250 7000
	0    -1   -1   0   
$EndComp
$Comp
L Vreg:5VREG U?
U 1 1 5C2D211F
P 1150 7000
F 0 "U?" V 1537 6669 60  0000 C CNN
F 1 "5VREG" V 1431 6669 60  0000 C CNN
F 2 "" H 1150 7000 60  0001 C CNN
F 3 "" H 1150 7000 60  0001 C CNN
	1    1150 7000
	0    -1   -1   0   
$EndComp
$Comp
L power:GND #PWR?
U 1 1 5C2DCCFB
P 1750 6950
F 0 "#PWR?" H 1750 6700 50  0001 C CNN
F 1 "GND" V 1755 6822 50  0000 R CNN
F 2 "" H 1750 6950 50  0001 C CNN
F 3 "" H 1750 6950 50  0001 C CNN
	1    1750 6950
	0    -1   -1   0   
$EndComp
$Comp
L power:GND #PWR?
U 1 1 5C2DCD98
P 2850 6950
F 0 "#PWR?" H 2850 6700 50  0001 C CNN
F 1 "GND" V 2855 6822 50  0000 R CNN
F 2 "" H 2850 6950 50  0001 C CNN
F 3 "" H 2850 6950 50  0001 C CNN
	1    2850 6950
	0    -1   -1   0   
$EndComp
$Comp
L power:+24V #PWR?
U 1 1 5C2DCE85
P 2850 7050
F 0 "#PWR?" H 2850 6900 50  0001 C CNN
F 1 "+24V" V 2865 7178 50  0000 L CNN
F 2 "" H 2850 7050 50  0001 C CNN
F 3 "" H 2850 7050 50  0001 C CNN
	1    2850 7050
	0    1    1    0   
$EndComp
$Comp
L power:+24V #PWR?
U 1 1 5C2DCECF
P 1750 7050
F 0 "#PWR?" H 1750 6900 50  0001 C CNN
F 1 "+24V" V 1765 7178 50  0000 L CNN
F 2 "" H 1750 7050 50  0001 C CNN
F 3 "" H 1750 7050 50  0001 C CNN
	1    1750 7050
	0    1    1    0   
$EndComp
$Comp
L power:+3.3V #PWR?
U 1 1 5C2DE48C
P 2850 6850
F 0 "#PWR?" H 2850 6700 50  0001 C CNN
F 1 "+3.3V" V 2865 6978 50  0000 L CNN
F 2 "" H 2850 6850 50  0001 C CNN
F 3 "" H 2850 6850 50  0001 C CNN
	1    2850 6850
	0    1    1    0   
$EndComp
$Comp
L power:+5V #PWR?
U 1 1 5C2DE507
P 1750 6850
F 0 "#PWR?" H 1750 6700 50  0001 C CNN
F 1 "+5V" V 1765 6978 50  0000 L CNN
F 2 "" H 1750 6850 50  0001 C CNN
F 3 "" H 1750 6850 50  0001 C CNN
	1    1750 6850
	0    1    1    0   
$EndComp
NoConn ~ 1750 7150
NoConn ~ 2850 7150
Entry Wire Line
	9000 4500 9100 4600
Entry Wire Line
	9100 4500 9200 4600
Entry Wire Line
	9200 4500 9300 4600
Entry Wire Line
	9300 4500 9400 4600
Entry Wire Line
	9400 4500 9500 4600
Entry Wire Line
	9500 4500 9600 4600
Entry Wire Line
	9600 4500 9700 4600
Entry Wire Line
	9700 4500 9800 4600
Entry Wire Line
	7800 4100 7900 4200
Entry Wire Line
	7800 4200 7900 4300
Entry Wire Line
	7800 4300 7900 4400
Entry Wire Line
	7800 4400 7900 4500
Entry Wire Line
	7800 4500 7900 4600
Entry Wire Line
	7800 4600 7900 4700
Entry Wire Line
	7800 4700 7900 4800
Wire Wire Line
	7450 4100 7800 4100
Wire Wire Line
	7450 4200 7800 4200
Wire Wire Line
	7450 4300 7800 4300
Wire Wire Line
	7450 4400 7800 4400
Wire Wire Line
	7450 4500 7800 4500
Wire Wire Line
	7450 4600 7800 4600
Wire Wire Line
	7450 4700 7800 4700
Text Label 7600 4100 2    50   ~ 0
O1
Text Label 7600 4200 2    50   ~ 0
O2
Text Label 7600 4300 2    50   ~ 0
O3
Text Label 7600 4400 2    50   ~ 0
O4
Text Label 7600 4500 2    50   ~ 0
O5
Text Label 7600 4600 2    50   ~ 0
O6
Text Label 7600 4700 2    50   ~ 0
O7
Text Label 9000 4450 2    50   ~ 0
O1
Text Label 9100 4450 2    50   ~ 0
O2
Text Label 9200 4450 2    50   ~ 0
O3
Text Label 9300 4450 2    50   ~ 0
O4
Text Label 9400 4450 2    50   ~ 0
O5
Text Label 9500 4450 2    50   ~ 0
O6
Text Label 9600 4450 2    50   ~ 0
O7
Text Label 9700 4450 2    50   ~ 0
O8
Entry Wire Line
	7800 4800 7900 4900
Wire Wire Line
	7800 4800 7450 4800
Text Label 7600 4800 2    50   ~ 0
O8
Wire Wire Line
	9700 4350 9700 4500
Wire Wire Line
	9600 4350 9600 4500
Wire Wire Line
	9500 4350 9500 4500
Wire Wire Line
	9400 4350 9400 4500
Wire Wire Line
	9300 4350 9300 4500
Wire Wire Line
	9200 4350 9200 4500
Wire Wire Line
	9100 4350 9100 4500
Wire Wire Line
	9000 4350 9000 4500
Connection ~ 7900 4600
$Comp
L Connector_Generic:Conn_01x07 J?
U 1 1 5C35CA60
P 5950 3300
F 0 "J?" H 5870 2775 50  0000 C CNN
F 1 "Conn_01x07" H 5870 2866 50  0000 C CNN
F 2 "" H 5950 3300 50  0001 C CNN
F 3 "~" H 5950 3300 50  0001 C CNN
	1    5950 3300
	-1   0    0    1   
$EndComp
$Comp
L Device:R R?
U 1 1 5C35CAF6
P 6400 3000
F 0 "R?" V 6607 3000 50  0000 C CNN
F 1 "100K" V 6516 3000 50  0000 C CNN
F 2 "" V 6330 3000 50  0001 C CNN
F 3 "~" H 6400 3000 50  0001 C CNN
	1    6400 3000
	0    -1   -1   0   
$EndComp
$Comp
L Device:R R?
U 1 1 5C35CB55
P 7650 3000
F 0 "R?" V 7443 3000 50  0000 C CNN
F 1 "10K" V 7534 3000 50  0000 C CNN
F 2 "" V 7580 3000 50  0001 C CNN
F 3 "~" H 7650 3000 50  0001 C CNN
	1    7650 3000
	0    1    1    0   
$EndComp
Wire Wire Line
	6150 3000 6250 3000
Wire Wire Line
	6550 3000 7500 3000
$Comp
L Device:R R?
U 1 1 5C364C61
P 6400 3100
F 0 "R?" V 6607 3100 50  0000 C CNN
F 1 "100K" V 6516 3100 50  0000 C CNN
F 2 "" V 6330 3100 50  0001 C CNN
F 3 "~" H 6400 3100 50  0001 C CNN
	1    6400 3100
	0    -1   -1   0   
$EndComp
$Comp
L Device:R R?
U 1 1 5C364C68
P 7650 3100
F 0 "R?" V 7443 3100 50  0000 C CNN
F 1 "10K" V 7534 3100 50  0000 C CNN
F 2 "" V 7580 3100 50  0001 C CNN
F 3 "~" H 7650 3100 50  0001 C CNN
	1    7650 3100
	0    1    1    0   
$EndComp
Wire Wire Line
	6150 3100 6250 3100
$Comp
L Device:R R?
U 1 1 5C366E2E
P 6400 3200
F 0 "R?" V 6607 3200 50  0000 C CNN
F 1 "100K" V 6516 3200 50  0000 C CNN
F 2 "" V 6330 3200 50  0001 C CNN
F 3 "~" H 6400 3200 50  0001 C CNN
	1    6400 3200
	0    -1   -1   0   
$EndComp
$Comp
L Device:R R?
U 1 1 5C366E35
P 7650 3200
F 0 "R?" V 7443 3200 50  0000 C CNN
F 1 "10K" V 7534 3200 50  0000 C CNN
F 2 "" V 7580 3200 50  0001 C CNN
F 3 "~" H 7650 3200 50  0001 C CNN
	1    7650 3200
	0    1    1    0   
$EndComp
Wire Wire Line
	6150 3200 6250 3200
$Comp
L Device:R R?
U 1 1 5C36912D
P 6400 3300
F 0 "R?" V 6607 3300 50  0000 C CNN
F 1 "100K" V 6516 3300 50  0000 C CNN
F 2 "" V 6330 3300 50  0001 C CNN
F 3 "~" H 6400 3300 50  0001 C CNN
	1    6400 3300
	0    -1   -1   0   
$EndComp
$Comp
L Device:R R?
U 1 1 5C369134
P 7650 3300
F 0 "R?" V 7443 3300 50  0000 C CNN
F 1 "10K" V 7534 3300 50  0000 C CNN
F 2 "" V 7580 3300 50  0001 C CNN
F 3 "~" H 7650 3300 50  0001 C CNN
	1    7650 3300
	0    1    1    0   
$EndComp
Wire Wire Line
	6150 3300 6250 3300
$Comp
L Device:R R?
U 1 1 5C36B55D
P 6400 3400
F 0 "R?" V 6607 3400 50  0000 C CNN
F 1 "100K" V 6516 3400 50  0000 C CNN
F 2 "" V 6330 3400 50  0001 C CNN
F 3 "~" H 6400 3400 50  0001 C CNN
	1    6400 3400
	0    -1   -1   0   
$EndComp
$Comp
L Device:R R?
U 1 1 5C36B564
P 7650 3400
F 0 "R?" V 7443 3400 50  0000 C CNN
F 1 "10K" V 7534 3400 50  0000 C CNN
F 2 "" V 7580 3400 50  0001 C CNN
F 3 "~" H 7650 3400 50  0001 C CNN
	1    7650 3400
	0    1    1    0   
$EndComp
Wire Wire Line
	6150 3400 6250 3400
$Comp
L Device:R R?
U 1 1 5C36DAD9
P 6400 3500
F 0 "R?" V 6607 3500 50  0000 C CNN
F 1 "100K" V 6516 3500 50  0000 C CNN
F 2 "" V 6330 3500 50  0001 C CNN
F 3 "~" H 6400 3500 50  0001 C CNN
	1    6400 3500
	0    -1   -1   0   
$EndComp
$Comp
L Device:R R?
U 1 1 5C36DAE0
P 7650 3500
F 0 "R?" V 7443 3500 50  0000 C CNN
F 1 "10K" V 7534 3500 50  0000 C CNN
F 2 "" V 7580 3500 50  0001 C CNN
F 3 "~" H 7650 3500 50  0001 C CNN
	1    7650 3500
	0    1    1    0   
$EndComp
Wire Wire Line
	6150 3500 6250 3500
Wire Wire Line
	7800 3000 7800 3600
Wire Wire Line
	7800 3600 6150 3600
Connection ~ 7800 3100
Connection ~ 7800 3200
Connection ~ 7800 3300
Connection ~ 7800 3400
Connection ~ 7800 3500
Connection ~ 6750 3000
Wire Wire Line
	6750 3000 6750 2900
Wire Wire Line
	6550 3100 7500 3100
Wire Wire Line
	6550 3200 7500 3200
Wire Wire Line
	6550 3300 7500 3300
Wire Wire Line
	6550 3400 7500 3400
Wire Wire Line
	6550 3500 7500 3500
Wire Wire Line
	6850 3100 6850 2900
Connection ~ 6850 3100
Wire Wire Line
	6950 3200 6950 2900
Connection ~ 6950 3200
Wire Wire Line
	7050 3300 7050 2900
Connection ~ 7050 3300
Wire Wire Line
	7150 3400 7150 2900
Connection ~ 7150 3400
Wire Wire Line
	7250 3500 7250 2900
Connection ~ 7250 3500
Wire Wire Line
	7350 3000 7350 2900
Connection ~ 7350 3000
Wire Wire Line
	7450 3000 7450 2900
Wire Bus Line
	7900 4200 7900 4900
Wire Bus Line
	7900 4600 9800 4600
Wire Bus Line
	6350 1250 10400 1250
Connection ~ 7450 3000
$Comp
L +24V #PWR?
U 1 1 5C2D15B9
P 2850 6450
F 0 "#PWR?" H 2850 6300 50  0001 C CNN
F 1 "+24V" H 2850 6590 50  0000 C CNN
F 2 "" H 2850 6450 50  0001 C CNN
F 3 "" H 2850 6450 50  0001 C CNN
	1    2850 6450
	-1   0    0    1   
$EndComp
$Sheet
S 3300 1350 1000 200 
U 5C2D2005
F0 "LVHVconverter" 60
F1 "file5C2D2004.sch" 60
F2 "LV" I R 4300 1450 60 
F3 "HV" I L 3300 1450 60 
$EndSheet
$Sheet
S 3300 1750 1000 200 
U 5C2D347D
F0 "LVHVconverter" 60
F1 "file5C2D2004.sch" 60
F2 "LV" I R 4300 1850 60 
F3 "HV" I L 3300 1850 60 
$EndSheet
$Sheet
S 3300 2200 1000 200 
U 5C2D3673
F0 "LVHVconverter" 60
F1 "file5C2D2004.sch" 60
F2 "LV" I R 4300 2300 60 
F3 "HV" I L 3300 2300 60 
$EndSheet
$Sheet
S 3300 2600 1000 200 
U 5C2D3677
F0 "LVHVconverter" 60
F1 "file5C2D2004.sch" 60
F2 "LV" I R 4300 2700 60 
F3 "HV" I L 3300 2700 60 
$EndSheet
$Sheet
S 3300 3000 1000 200 
U 5C2D3FAB
F0 "LVHVconverter" 60
F1 "file5C2D2004.sch" 60
F2 "LV" I R 4300 3100 60 
F3 "HV" I L 3300 3100 60 
$EndSheet
$Sheet
S 3300 3450 1000 200 
U 5C2D3FAF
F0 "LVHVconverter" 60
F1 "file5C2D2004.sch" 60
F2 "LV" I R 4300 3550 60 
F3 "HV" I L 3300 3550 60 
$EndSheet
Wire Bus Line
	4900 1250 6400 1250
Wire Wire Line
	4300 1450 4800 1450
Wire Wire Line
	4300 1850 4800 1850
Wire Wire Line
	4300 2300 4800 2300
Wire Wire Line
	4300 2700 4800 2700
Wire Wire Line
	4300 3100 4800 3100
Wire Wire Line
	4300 3550 4800 3550
Entry Wire Line
	4800 3550 4900 3650
Entry Wire Line
	4800 3100 4900 3200
Entry Wire Line
	4800 2700 4900 2800
Entry Wire Line
	4800 2300 4900 2400
Entry Wire Line
	4800 1850 4900 1950
Entry Wire Line
	4800 1450 4900 1550
Text Label 6950 1650 1    60   ~ 0
CLOCK
Text Label 7050 1650 1    60   ~ 0
MISO
Text Label 7150 1650 1    60   ~ 0
MOSI
Text Label 7250 1650 1    60   ~ 0
CS1
Text Label 8400 1650 1    60   ~ 0
CLOCK
Text Label 8500 1650 1    60   ~ 0
MISO
Text Label 8600 1650 1    60   ~ 0
MOSI
Text Label 8700 1650 1    60   ~ 0
CS2
Text Label 9950 1650 1    60   ~ 0
CLOCK
Text Label 10050 1650 1    60   ~ 0
MISO
Text Label 10150 1650 1    60   ~ 0
MOSI
Text Label 10250 1650 1    60   ~ 0
CS3
Text Label 4350 1450 0    60   ~ 0
CLOCK
Text Label 4350 1850 0    60   ~ 0
MISO
Text Label 4350 2300 0    60   ~ 0
MOSI
Text Label 4350 2700 0    60   ~ 0
CS1
Text Label 4350 3100 0    60   ~ 0
CS2
Text Label 4400 3550 0    60   ~ 0
CS3
Wire Bus Line
	4900 1250 4900 3650
Wire Bus Line
	2750 2600 2750 4600
Wire Bus Line
	2750 4600 5700 4600
Wire Bus Line
	5700 4600 5700 4050
Text GLabel 2950 2300 0    60   Input ~ 0
MOSI
Text GLabel 2950 1850 0    60   Input ~ 0
MISO
Text GLabel 2950 1450 0    60   Input ~ 0
SCLK
Wire Wire Line
	2950 1450 3300 1450
Wire Wire Line
	2950 1850 3300 1850
Wire Wire Line
	2950 2300 3300 2300
Wire Wire Line
	3300 2700 2850 2700
Wire Wire Line
	2850 3100 3300 3100
Wire Wire Line
	2850 3550 3300 3550
Wire Wire Line
	5800 4150 6050 4150
Wire Wire Line
	6050 4300 5800 4300
Wire Wire Line
	5800 4450 6050 4450
Entry Wire Line
	5700 4350 5800 4450
Entry Wire Line
	5700 4200 5800 4300
Entry Wire Line
	5700 4050 5800 4150
Text Label 5800 4150 0    60   ~ 0
SS1
Text Label 5800 4300 0    60   ~ 0
SS2
Text Label 5800 4450 0    60   ~ 0
SS3
Text Label 2900 2700 0    60   ~ 0
SS1
Text Label 2900 3100 0    60   ~ 0
SS2
Text Label 2900 3550 0    60   ~ 0
SS3
Entry Wire Line
	2750 3450 2850 3550
Entry Wire Line
	2750 3000 2850 3100
Entry Wire Line
	2750 2600 2850 2700
$Comp
L +24V #PWR?
U 1 1 5C2DF1EE
P 8900 1050
F 0 "#PWR?" H 8900 900 50  0001 C CNN
F 1 "+24V" H 8900 1190 50  0000 C CNN
F 2 "" H 8900 1050 50  0001 C CNN
F 3 "" H 8900 1050 50  0001 C CNN
	1    8900 1050
	1    0    0    -1  
$EndComp
$Comp
L GND #PWR?
U 1 1 5C2DF2C6
P 9300 1700
F 0 "#PWR?" H 9300 1450 50  0001 C CNN
F 1 "GND" H 9300 1550 50  0000 C CNN
F 2 "" H 9300 1700 50  0001 C CNN
F 3 "" H 9300 1700 50  0001 C CNN
	1    9300 1700
	1    0    0    -1  
$EndComp
$Comp
L GND #PWR?
U 1 1 5C2DF39E
P 10750 1700
F 0 "#PWR?" H 10750 1450 50  0001 C CNN
F 1 "GND" H 10750 1550 50  0000 C CNN
F 2 "" H 10750 1700 50  0001 C CNN
F 3 "" H 10750 1700 50  0001 C CNN
	1    10750 1700
	1    0    0    -1  
$EndComp
Wire Wire Line
	8900 1650 9300 1650
Connection ~ 8900 1650
Wire Wire Line
	9300 1650 9300 1700
Wire Wire Line
	10450 1650 10750 1650
Wire Wire Line
	10750 1650 10750 1700
Connection ~ 10450 1650
$Comp
L GND #PWR?
U 1 1 5C2DFE2E
P 8800 4300
F 0 "#PWR?" H 8800 4050 50  0001 C CNN
F 1 "GND" H 8800 4150 50  0000 C CNN
F 2 "" H 8800 4300 50  0001 C CNN
F 3 "" H 8800 4300 50  0001 C CNN
	1    8800 4300
	1    0    0    -1  
$EndComp
$Comp
L +24V #PWR?
U 1 1 5C2DFF06
P 10150 4200
F 0 "#PWR?" H 10150 4050 50  0001 C CNN
F 1 "+24V" H 10150 4340 50  0000 C CNN
F 2 "" H 10150 4200 50  0001 C CNN
F 3 "" H 10150 4200 50  0001 C CNN
	1    10150 4200
	1    0    0    -1  
$EndComp
Wire Wire Line
	9800 4350 10150 4350
Wire Wire Line
	10150 4350 10150 4200
Wire Wire Line
	8800 4300 8800 3950
$Comp
L R R?
U 1 1 5C2E0CE4
P 9450 4850
F 0 "R?" V 9530 4850 50  0000 C CNN
F 1 "470" V 9450 4850 50  0000 C CNN
F 2 "" V 9380 4850 50  0001 C CNN
F 3 "" H 9450 4850 50  0001 C CNN
	1    9450 4850
	0    1    1    0   
$EndComp
$Comp
L LED D?
U 1 1 5C2E0DD7
P 9800 4850
F 0 "D?" H 9800 4950 50  0000 C CNN
F 1 "LED" H 9800 4750 50  0000 C CNN
F 2 "" H 9800 4850 50  0001 C CNN
F 3 "" H 9800 4850 50  0001 C CNN
	1    9800 4850
	-1   0    0    1   
$EndComp
Wire Wire Line
	9650 4850 9600 4850
Wire Wire Line
	9950 4850 10100 4850
$Comp
L GND #PWR?
U 1 1 5C2E10B0
P 10100 4850
F 0 "#PWR?" H 10100 4600 50  0001 C CNN
F 1 "GND" H 10100 4700 50  0000 C CNN
F 2 "" H 10100 4850 50  0001 C CNN
F 3 "" H 10100 4850 50  0001 C CNN
	1    10100 4850
	1    0    0    -1  
$EndComp
Wire Wire Line
	9300 4850 8800 4850
Entry Wire Line
	8700 4750 8800 4850
Text Label 8950 4850 0    60   ~ 0
O1
Wire Bus Line
	8700 4600 8700 6250
$Comp
L R R?
U 1 1 5C2E1C56
P 9450 5150
F 0 "R?" V 9530 5150 50  0000 C CNN
F 1 "470" V 9450 5150 50  0000 C CNN
F 2 "" V 9380 5150 50  0001 C CNN
F 3 "" H 9450 5150 50  0001 C CNN
	1    9450 5150
	0    1    1    0   
$EndComp
$Comp
L LED D?
U 1 1 5C2E1C5C
P 9800 5150
F 0 "D?" H 9800 5250 50  0000 C CNN
F 1 "LED" H 9800 5050 50  0000 C CNN
F 2 "" H 9800 5150 50  0001 C CNN
F 3 "" H 9800 5150 50  0001 C CNN
	1    9800 5150
	-1   0    0    1   
$EndComp
Wire Wire Line
	9650 5150 9600 5150
Wire Wire Line
	9950 5150 10100 5150
$Comp
L GND #PWR?
U 1 1 5C2E1C64
P 10100 5150
F 0 "#PWR?" H 10100 4900 50  0001 C CNN
F 1 "GND" H 10100 5000 50  0000 C CNN
F 2 "" H 10100 5150 50  0001 C CNN
F 3 "" H 10100 5150 50  0001 C CNN
	1    10100 5150
	1    0    0    -1  
$EndComp
Wire Wire Line
	9300 5150 8800 5150
Entry Wire Line
	8700 5050 8800 5150
Text Label 8950 5150 0    60   ~ 0
O2
$Comp
L R R?
U 1 1 5C2E1E07
P 9450 5450
F 0 "R?" V 9530 5450 50  0000 C CNN
F 1 "470" V 9450 5450 50  0000 C CNN
F 2 "" V 9380 5450 50  0001 C CNN
F 3 "" H 9450 5450 50  0001 C CNN
	1    9450 5450
	0    1    1    0   
$EndComp
$Comp
L LED D?
U 1 1 5C2E1E0D
P 9800 5450
F 0 "D?" H 9800 5550 50  0000 C CNN
F 1 "LED" H 9800 5350 50  0000 C CNN
F 2 "" H 9800 5450 50  0001 C CNN
F 3 "" H 9800 5450 50  0001 C CNN
	1    9800 5450
	-1   0    0    1   
$EndComp
Wire Wire Line
	9650 5450 9600 5450
Wire Wire Line
	9950 5450 10100 5450
$Comp
L GND #PWR?
U 1 1 5C2E1E15
P 10100 5450
F 0 "#PWR?" H 10100 5200 50  0001 C CNN
F 1 "GND" H 10100 5300 50  0000 C CNN
F 2 "" H 10100 5450 50  0001 C CNN
F 3 "" H 10100 5450 50  0001 C CNN
	1    10100 5450
	1    0    0    -1  
$EndComp
Wire Wire Line
	9300 5450 8800 5450
Entry Wire Line
	8700 5350 8800 5450
Text Label 8950 5450 0    60   ~ 0
O3
$Comp
L R R?
U 1 1 5C2E1E1E
P 9450 5750
F 0 "R?" V 9530 5750 50  0000 C CNN
F 1 "470" V 9450 5750 50  0000 C CNN
F 2 "" V 9380 5750 50  0001 C CNN
F 3 "" H 9450 5750 50  0001 C CNN
	1    9450 5750
	0    1    1    0   
$EndComp
$Comp
L LED D?
U 1 1 5C2E1E24
P 9800 5750
F 0 "D?" H 9800 5850 50  0000 C CNN
F 1 "LED" H 9800 5650 50  0000 C CNN
F 2 "" H 9800 5750 50  0001 C CNN
F 3 "" H 9800 5750 50  0001 C CNN
	1    9800 5750
	-1   0    0    1   
$EndComp
Wire Wire Line
	9650 5750 9600 5750
Wire Wire Line
	9950 5750 10100 5750
$Comp
L GND #PWR?
U 1 1 5C2E1E2C
P 10100 5750
F 0 "#PWR?" H 10100 5500 50  0001 C CNN
F 1 "GND" H 10100 5600 50  0000 C CNN
F 2 "" H 10100 5750 50  0001 C CNN
F 3 "" H 10100 5750 50  0001 C CNN
	1    10100 5750
	1    0    0    -1  
$EndComp
Wire Wire Line
	9300 5750 8800 5750
Entry Wire Line
	8700 5650 8800 5750
Text Label 8950 5750 0    60   ~ 0
O4
$Comp
L R R?
U 1 1 5C2E2153
P 7950 5150
F 0 "R?" V 8030 5150 50  0000 C CNN
F 1 "470" V 7950 5150 50  0000 C CNN
F 2 "" V 7880 5150 50  0001 C CNN
F 3 "" H 7950 5150 50  0001 C CNN
	1    7950 5150
	0    -1   1    0   
$EndComp
$Comp
L LED D?
U 1 1 5C2E2159
P 7600 5150
F 0 "D?" H 7600 5250 50  0000 C CNN
F 1 "LED" H 7600 5050 50  0000 C CNN
F 2 "" H 7600 5150 50  0001 C CNN
F 3 "" H 7600 5150 50  0001 C CNN
	1    7600 5150
	1    0    0    1   
$EndComp
Wire Wire Line
	7750 5150 7800 5150
Wire Wire Line
	7450 5150 7300 5150
$Comp
L GND #PWR?
U 1 1 5C2E2161
P 7300 5150
F 0 "#PWR?" H 7300 4900 50  0001 C CNN
F 1 "GND" H 7300 5000 50  0000 C CNN
F 2 "" H 7300 5150 50  0001 C CNN
F 3 "" H 7300 5150 50  0001 C CNN
	1    7300 5150
	-1   0    0    -1  
$EndComp
Wire Wire Line
	8100 5150 8600 5150
Entry Wire Line
	8700 5050 8600 5150
Text Label 8450 5150 2    60   ~ 0
O5
$Comp
L R R?
U 1 1 5C2E216A
P 7950 5450
F 0 "R?" V 8030 5450 50  0000 C CNN
F 1 "470" V 7950 5450 50  0000 C CNN
F 2 "" V 7880 5450 50  0001 C CNN
F 3 "" H 7950 5450 50  0001 C CNN
	1    7950 5450
	0    -1   1    0   
$EndComp
$Comp
L LED D?
U 1 1 5C2E2170
P 7600 5450
F 0 "D?" H 7600 5550 50  0000 C CNN
F 1 "LED" H 7600 5350 50  0000 C CNN
F 2 "" H 7600 5450 50  0001 C CNN
F 3 "" H 7600 5450 50  0001 C CNN
	1    7600 5450
	1    0    0    1   
$EndComp
Wire Wire Line
	7750 5450 7800 5450
Wire Wire Line
	7450 5450 7300 5450
$Comp
L GND #PWR?
U 1 1 5C2E2178
P 7300 5450
F 0 "#PWR?" H 7300 5200 50  0001 C CNN
F 1 "GND" H 7300 5300 50  0000 C CNN
F 2 "" H 7300 5450 50  0001 C CNN
F 3 "" H 7300 5450 50  0001 C CNN
	1    7300 5450
	-1   0    0    -1  
$EndComp
Wire Wire Line
	8100 5450 8600 5450
Entry Wire Line
	8700 5350 8600 5450
Text Label 8450 5450 2    60   ~ 0
O6
$Comp
L R R?
U 1 1 5C2E2181
P 7950 5750
F 0 "R?" V 8030 5750 50  0000 C CNN
F 1 "470" V 7950 5750 50  0000 C CNN
F 2 "" V 7880 5750 50  0001 C CNN
F 3 "" H 7950 5750 50  0001 C CNN
	1    7950 5750
	0    -1   1    0   
$EndComp
$Comp
L LED D?
U 1 1 5C2E2187
P 7600 5750
F 0 "D?" H 7600 5850 50  0000 C CNN
F 1 "LED" H 7600 5650 50  0000 C CNN
F 2 "" H 7600 5750 50  0001 C CNN
F 3 "" H 7600 5750 50  0001 C CNN
	1    7600 5750
	1    0    0    1   
$EndComp
Wire Wire Line
	7750 5750 7800 5750
Wire Wire Line
	7450 5750 7300 5750
$Comp
L GND #PWR?
U 1 1 5C2E218F
P 7300 5750
F 0 "#PWR?" H 7300 5500 50  0001 C CNN
F 1 "GND" H 7300 5600 50  0000 C CNN
F 2 "" H 7300 5750 50  0001 C CNN
F 3 "" H 7300 5750 50  0001 C CNN
	1    7300 5750
	-1   0    0    -1  
$EndComp
Wire Wire Line
	8100 5750 8600 5750
Entry Wire Line
	8700 5650 8600 5750
Text Label 8450 5750 2    60   ~ 0
O7
$Comp
L R R?
U 1 1 5C2E2198
P 7950 6050
F 0 "R?" V 8030 6050 50  0000 C CNN
F 1 "470" V 7950 6050 50  0000 C CNN
F 2 "" V 7880 6050 50  0001 C CNN
F 3 "" H 7950 6050 50  0001 C CNN
	1    7950 6050
	0    -1   1    0   
$EndComp
$Comp
L LED D?
U 1 1 5C2E219E
P 7600 6050
F 0 "D?" H 7600 6150 50  0000 C CNN
F 1 "LED" H 7600 5950 50  0000 C CNN
F 2 "" H 7600 6050 50  0001 C CNN
F 3 "" H 7600 6050 50  0001 C CNN
	1    7600 6050
	1    0    0    1   
$EndComp
Wire Wire Line
	7750 6050 7800 6050
Wire Wire Line
	7450 6050 7300 6050
$Comp
L GND #PWR?
U 1 1 5C2E21A6
P 7300 6050
F 0 "#PWR?" H 7300 5800 50  0001 C CNN
F 1 "GND" H 7300 5900 50  0000 C CNN
F 2 "" H 7300 6050 50  0001 C CNN
F 3 "" H 7300 6050 50  0001 C CNN
	1    7300 6050
	-1   0    0    -1  
$EndComp
Wire Wire Line
	8100 6050 8600 6050
Entry Wire Line
	8700 5950 8600 6050
Text Label 8450 6050 2    60   ~ 0
O8
$EndSCHEMATC
